%!PS-Adobe-3.0 EPSF-3.0
%%Creator: (MATLAB, The Mathworks, Inc. Version 8.6.0.267246 \(R2015b\). Operating System: Mac OS X)
%%Title: ./all.eps
%%CreationDate: 2016-03-30T12:13:38
%%Pages: (atend)
%%BoundingBox:    15     0   544   410
%%LanguageLevel: 3
%%EndComments
%%BeginProlog
%%BeginResource: procset (Apache XML Graphics Std ProcSet) 1.2 0
%%Version: 1.2 0
%%Copyright: (Copyright 2001-2003,2010 The Apache Software Foundation. License terms: http://www.apache.org/licenses/LICENSE-2.0)
/bd{bind def}bind def
/ld{load def}bd
/GR/grestore ld
/M/moveto ld
/LJ/setlinejoin ld
/C/curveto ld
/f/fill ld
/LW/setlinewidth ld
/GC/setgray ld
/t/show ld
/N/newpath ld
/CT/concat ld
/cp/closepath ld
/S/stroke ld
/L/lineto ld
/CC/setcmykcolor ld
/A/ashow ld
/GS/gsave ld
/RC/setrgbcolor ld
/RM/rmoveto ld
/ML/setmiterlimit ld
/re {4 2 roll M
1 index 0 rlineto
0 exch rlineto
neg 0 rlineto
cp } bd
/_ctm matrix def
/_tm matrix def
/BT { _ctm currentmatrix pop matrix _tm copy pop 0 0 moveto } bd
/ET { _ctm setmatrix } bd
/iTm { _ctm setmatrix _tm concat } bd
/Tm { _tm astore pop iTm 0 0 moveto } bd
/ux 0.0 def
/uy 0.0 def
/F {
  /Tp exch def
  /Tf exch def
  Tf findfont Tp scalefont setfont
  /cf Tf def  /cs Tp def
} bd
/ULS {currentpoint /uy exch def /ux exch def} bd
/ULE {
  /Tcx currentpoint pop def
  gsave
  newpath
  cf findfont cs scalefont dup
  /FontMatrix get 0 get /Ts exch def /FontInfo get dup
  /UnderlinePosition get Ts mul /To exch def
  /UnderlineThickness get Ts mul /Tt exch def
  ux uy To add moveto  Tcx uy To add lineto
  Tt setlinewidth stroke
  grestore
} bd
/OLE {
  /Tcx currentpoint pop def
  gsave
  newpath
  cf findfont cs scalefont dup
  /FontMatrix get 0 get /Ts exch def /FontInfo get dup
  /UnderlinePosition get Ts mul /To exch def
  /UnderlineThickness get Ts mul /Tt exch def
  ux uy To add cs add moveto Tcx uy To add cs add lineto
  Tt setlinewidth stroke
  grestore
} bd
/SOE {
  /Tcx currentpoint pop def
  gsave
  newpath
  cf findfont cs scalefont dup
  /FontMatrix get 0 get /Ts exch def /FontInfo get dup
  /UnderlinePosition get Ts mul /To exch def
  /UnderlineThickness get Ts mul /Tt exch def
  ux uy To add cs 10 mul 26 idiv add moveto Tcx uy To add cs 10 mul 26 idiv add lineto
  Tt setlinewidth stroke
  grestore
} bd
/QT {
/Y22 exch store
/X22 exch store
/Y21 exch store
/X21 exch store
currentpoint
/Y21 load 2 mul add 3 div exch
/X21 load 2 mul add 3 div exch
/X21 load 2 mul /X22 load add 3 div
/Y21 load 2 mul /Y22 load add 3 div
/X22 load /Y22 load curveto
} bd
/SSPD {
dup length /d exch dict def
{
/v exch def
/k exch def
currentpagedevice k known {
/cpdv currentpagedevice k get def
v cpdv ne {
/upd false def
/nullv v type /nulltype eq def
/nullcpdv cpdv type /nulltype eq def
nullv nullcpdv or
{
/upd true def
} {
/sametype v type cpdv type eq def
sametype {
v type /arraytype eq {
/vlen v length def
/cpdvlen cpdv length def
vlen cpdvlen eq {
0 1 vlen 1 sub {
/i exch def
/obj v i get def
/cpdobj cpdv i get def
obj cpdobj ne {
/upd true def
exit
} if
} for
} {
/upd true def
} ifelse
} {
v type /dicttype eq {
v {
/dv exch def
/dk exch def
/cpddv cpdv dk get def
dv cpddv ne {
/upd true def
exit
} if
} forall
} {
/upd true def
} ifelse
} ifelse
} if
} ifelse
upd true eq {
d k v put
} if
} if
} if
} forall
d length 0 gt {
d setpagedevice
} if
} bd
%%EndResource
%%BeginResource: procset (Apache XML Graphics EPS ProcSet) 1.0 0
%%Version: 1.0 0
%%Copyright: (Copyright 2002-2003 The Apache Software Foundation. License terms: http://www.apache.org/licenses/LICENSE-2.0)
/BeginEPSF { %def
/b4_Inc_state save def         % Save state for cleanup
/dict_count countdictstack def % Count objects on dict stack
/op_count count 1 sub def      % Count objects on operand stack
userdict begin                 % Push userdict on dict stack
/showpage { } def              % Redefine showpage, { } = null proc
0 setgray 0 setlinecap         % Prepare graphics state
1 setlinewidth 0 setlinejoin
10 setmiterlimit [ ] 0 setdash newpath
/languagelevel where           % If level not equal to 1 then
{pop languagelevel             % set strokeadjust and
1 ne                           % overprint to their defaults.
{false setstrokeadjust false setoverprint
} if
} if
} bd
/EndEPSF { %def
count op_count sub {pop} repeat            % Clean up stacks
countdictstack dict_count sub {end} repeat
b4_Inc_state restore
} bd
%%EndResource
%FOPBeginFontDict
%%IncludeResource: font Courier-Bold
%%IncludeResource: font Helvetica
%%IncludeResource: font Courier-BoldOblique
%%IncludeResource: font Courier-Oblique
%%IncludeResource: font Times-Roman
%%IncludeResource: font Helvetica-BoldOblique
%%IncludeResource: font Helvetica-Bold
%%IncludeResource: font Helvetica-Oblique
%%IncludeResource: font Times-BoldItalic
%%IncludeResource: font Courier
%%IncludeResource: font Times-Italic
%%IncludeResource: font Times-Bold
%%IncludeResource: font Symbol
%%IncludeResource: font ZapfDingbats
%FOPEndFontDict
%%BeginResource: encoding WinAnsiEncoding
/WinAnsiEncoding [
/.notdef /.notdef /.notdef /.notdef /.notdef
/.notdef /.notdef /.notdef /.notdef /.notdef
/.notdef /.notdef /.notdef /.notdef /.notdef
/.notdef /.notdef /.notdef /.notdef /.notdef
/.notdef /.notdef /.notdef /.notdef /.notdef
/.notdef /.notdef /.notdef /.notdef /.notdef
/.notdef /.notdef /space /exclam /quotedbl
/numbersign /dollar /percent /ampersand /quotesingle
/parenleft /parenright /asterisk /plus /comma
/hyphen /period /slash /zero /one
/two /three /four /five /six
/seven /eight /nine /colon /semicolon
/less /equal /greater /question /at
/A /B /C /D /E
/F /G /H /I /J
/K /L /M /N /O
/P /Q /R /S /T
/U /V /W /X /Y
/Z /bracketleft /backslash /bracketright /asciicircum
/underscore /quoteleft /a /b /c
/d /e /f /g /h
/i /j /k /l /m
/n /o /p /q /r
/s /t /u /v /w
/x /y /z /braceleft /bar
/braceright /asciitilde /bullet /Euro /bullet
/quotesinglbase /florin /quotedblbase /ellipsis /dagger
/daggerdbl /circumflex /perthousand /Scaron /guilsinglleft
/OE /bullet /Zcaron /bullet /bullet
/quoteleft /quoteright /quotedblleft /quotedblright /bullet
/endash /emdash /asciitilde /trademark /scaron
/guilsinglright /oe /bullet /zcaron /Ydieresis
/space /exclamdown /cent /sterling /currency
/yen /brokenbar /section /dieresis /copyright
/ordfeminine /guillemotleft /logicalnot /sfthyphen /registered
/macron /degree /plusminus /twosuperior /threesuperior
/acute /mu /paragraph /middot /cedilla
/onesuperior /ordmasculine /guillemotright /onequarter /onehalf
/threequarters /questiondown /Agrave /Aacute /Acircumflex
/Atilde /Adieresis /Aring /AE /Ccedilla
/Egrave /Eacute /Ecircumflex /Edieresis /Igrave
/Iacute /Icircumflex /Idieresis /Eth /Ntilde
/Ograve /Oacute /Ocircumflex /Otilde /Odieresis
/multiply /Oslash /Ugrave /Uacute /Ucircumflex
/Udieresis /Yacute /Thorn /germandbls /agrave
/aacute /acircumflex /atilde /adieresis /aring
/ae /ccedilla /egrave /eacute /ecircumflex
/edieresis /igrave /iacute /icircumflex /idieresis
/eth /ntilde /ograve /oacute /ocircumflex
/otilde /odieresis /divide /oslash /ugrave
/uacute /ucircumflex /udieresis /yacute /thorn
/ydieresis
] def
%%EndResource
%FOPBeginFontReencode
/Courier-Bold findfont
dup length dict begin
  {1 index /FID ne {def} {pop pop} ifelse} forall
  /Encoding WinAnsiEncoding def
  currentdict
end
/Courier-Bold exch definefont pop
/Helvetica findfont
dup length dict begin
  {1 index /FID ne {def} {pop pop} ifelse} forall
  /Encoding WinAnsiEncoding def
  currentdict
end
/Helvetica exch definefont pop
/Courier-BoldOblique findfont
dup length dict begin
  {1 index /FID ne {def} {pop pop} ifelse} forall
  /Encoding WinAnsiEncoding def
  currentdict
end
/Courier-BoldOblique exch definefont pop
/Courier-Oblique findfont
dup length dict begin
  {1 index /FID ne {def} {pop pop} ifelse} forall
  /Encoding WinAnsiEncoding def
  currentdict
end
/Courier-Oblique exch definefont pop
/Times-Roman findfont
dup length dict begin
  {1 index /FID ne {def} {pop pop} ifelse} forall
  /Encoding WinAnsiEncoding def
  currentdict
end
/Times-Roman exch definefont pop
/Helvetica-BoldOblique findfont
dup length dict begin
  {1 index /FID ne {def} {pop pop} ifelse} forall
  /Encoding WinAnsiEncoding def
  currentdict
end
/Helvetica-BoldOblique exch definefont pop
/Helvetica-Bold findfont
dup length dict begin
  {1 index /FID ne {def} {pop pop} ifelse} forall
  /Encoding WinAnsiEncoding def
  currentdict
end
/Helvetica-Bold exch definefont pop
/Helvetica-Oblique findfont
dup length dict begin
  {1 index /FID ne {def} {pop pop} ifelse} forall
  /Encoding WinAnsiEncoding def
  currentdict
end
/Helvetica-Oblique exch definefont pop
/Times-BoldItalic findfont
dup length dict begin
  {1 index /FID ne {def} {pop pop} ifelse} forall
  /Encoding WinAnsiEncoding def
  currentdict
end
/Times-BoldItalic exch definefont pop
/Courier findfont
dup length dict begin
  {1 index /FID ne {def} {pop pop} ifelse} forall
  /Encoding WinAnsiEncoding def
  currentdict
end
/Courier exch definefont pop
/Times-Italic findfont
dup length dict begin
  {1 index /FID ne {def} {pop pop} ifelse} forall
  /Encoding WinAnsiEncoding def
  currentdict
end
/Times-Italic exch definefont pop
/Times-Bold findfont
dup length dict begin
  {1 index /FID ne {def} {pop pop} ifelse} forall
  /Encoding WinAnsiEncoding def
  currentdict
end
/Times-Bold exch definefont pop
%FOPEndFontReencode
%%EndProlog
%%Page: 1 1
%%PageBoundingBox: 0 0 576 432
%%BeginPageSetup
[1 0 0 -1 0 432] CT
%%EndPageSetup
GS
1 GC
N
0 0 576 432 re
f
GR
GS
1 GC
N
0 0 576 432 re
f
GR
GS
1 GC
N
75 382 M
521.5 382 L
521.5 32.5 L
75 32.5 L
cp
f
GR
GS
0.873 GC
1 LJ
0.5 LW
N
75 382 M
75 32.5 L
S
GR
GS
0.873 GC
1 LJ
0.5 LW
N
164.3 382 M
164.3 32.5 L
S
GR
GS
0.873 GC
1 LJ
0.5 LW
N
253.6 382 M
253.6 32.5 L
S
GR
GS
0.873 GC
1 LJ
0.5 LW
N
342.9 382 M
342.9 32.5 L
S
GR
GS
0.873 GC
1 LJ
0.5 LW
N
432.2 382 M
432.2 32.5 L
S
GR
GS
0.873 GC
1 LJ
0.5 LW
N
521.5 382 M
521.5 32.5 L
S
GR
GS
0.873 GC
1 LJ
0.5 LW
N
521.5 382 M
75 382 L
S
GR
GS
0.873 GC
1 LJ
0.5 LW
N
521.5 312.1 M
75 312.1 L
S
GR
GS
0.873 GC
1 LJ
0.5 LW
N
521.5 242.2 M
75 242.2 L
S
GR
GS
0.873 GC
1 LJ
0.5 LW
N
521.5 172.3 M
75 172.3 L
S
GR
GS
0.873 GC
1 LJ
0.5 LW
N
521.5 102.4 M
75 102.4 L
S
GR
GS
0.873 GC
1 LJ
0.5 LW
N
521.5 32.5 M
75 32.5 L
S
GR
GS
0.149 GC
2 setlinecap
1 LJ
0.5 LW
N
75 382 M
521.5 382 L
S
GR
GS
0.149 GC
2 setlinecap
1 LJ
0.5 LW
N
75 32.5 M
521.5 32.5 L
S
GR
GS
0.149 GC
2 setlinecap
1 LJ
0.5 LW
N
75 382 M
75 377.535 L
S
GR
GS
0.149 GC
2 setlinecap
1 LJ
0.5 LW
N
164.3 382 M
164.3 377.535 L
S
GR
GS
0.149 GC
2 setlinecap
1 LJ
0.5 LW
N
253.6 382 M
253.6 377.535 L
S
GR
GS
0.149 GC
2 setlinecap
1 LJ
0.5 LW
N
342.9 382 M
342.9 377.535 L
S
GR
GS
0.149 GC
2 setlinecap
1 LJ
0.5 LW
N
432.2 382 M
432.2 377.535 L
S
GR
GS
0.149 GC
2 setlinecap
1 LJ
0.5 LW
N
521.5 382 M
521.5 377.535 L
S
GR
GS
0.149 GC
2 setlinecap
1 LJ
0.5 LW
N
75 32.5 M
75 36.965 L
S
GR
GS
0.149 GC
2 setlinecap
1 LJ
0.5 LW
N
164.3 32.5 M
164.3 36.965 L
S
GR
GS
0.149 GC
2 setlinecap
1 LJ
0.5 LW
N
253.6 32.5 M
253.6 36.965 L
S
GR
GS
0.149 GC
2 setlinecap
1 LJ
0.5 LW
N
342.9 32.5 M
342.9 36.965 L
S
GR
GS
0.149 GC
2 setlinecap
1 LJ
0.5 LW
N
432.2 32.5 M
432.2 36.965 L
S
GR
GS
0.149 GC
2 setlinecap
1 LJ
0.5 LW
N
521.5 32.5 M
521.5 36.965 L
S
GR
GS
[1 0 0 1 75 388] CT
0.149 GC
/Helvetica 20 F
GS
[1 0 0 1 0 0] CT
-6 16 moveto 
1 -1 scale
(0) t 
GR
GR
GS
[1 0 0 1 164.3 388] CT
0.149 GC
/Helvetica 20 F
GS
[1 0 0 1 0 0] CT
-22.5 16 moveto 
1 -1 scale
(1000) t 
GR
GR
GS
[1 0 0 1 253.60001 388] CT
0.149 GC
/Helvetica 20 F
GS
[1 0 0 1 0 0] CT
-22.5 16 moveto 
1 -1 scale
(2000) t 
GR
GR
GS
[1 0 0 1 342.89999 388] CT
0.149 GC
/Helvetica 20 F
GS
[1 0 0 1 0 0] CT
-22.5 16 moveto 
1 -1 scale
(3000) t 
GR
GR
GS
[1 0 0 1 432.20001 388] CT
0.149 GC
/Helvetica 20 F
GS
[1 0 0 1 0 0] CT
-22.5 16 moveto 
1 -1 scale
(4000) t 
GR
GR
GS
[1 0 0 1 521.5 388] CT
0.149 GC
/Helvetica 20 F
GS
[1 0 0 1 0 0] CT
-22.5 16 moveto 
1 -1 scale
(5000) t 
GR
GR
GS
[1 0 0 1 298.25021 409.5] CT
0.149 GC
/Helvetica 22 F
GS
[1 0 0 1 0 0] CT
-127.5 17 moveto 
1 -1 scale
(Number of measurements) t 
GR
GR
GS
0.149 GC
2 setlinecap
1 LJ
0.5 LW
N
75 382 M
75 32.5 L
S
GR
GS
0.149 GC
2 setlinecap
1 LJ
0.5 LW
N
521.5 382 M
521.5 32.5 L
S
GR
GS
0.149 GC
2 setlinecap
1 LJ
0.5 LW
N
75 382 M
79.465 382 L
S
GR
GS
0.149 GC
2 setlinecap
1 LJ
0.5 LW
N
75 312.1 M
79.465 312.1 L
S
GR
GS
0.149 GC
2 setlinecap
1 LJ
0.5 LW
N
75 242.2 M
79.465 242.2 L
S
GR
GS
0.149 GC
2 setlinecap
1 LJ
0.5 LW
N
75 172.3 M
79.465 172.3 L
S
GR
GS
0.149 GC
2 setlinecap
1 LJ
0.5 LW
N
75 102.4 M
79.465 102.4 L
S
GR
GS
0.149 GC
2 setlinecap
1 LJ
0.5 LW
N
75 32.5 M
79.465 32.5 L
S
GR
GS
0.149 GC
2 setlinecap
1 LJ
0.5 LW
N
521.5 382 M
517.035 382 L
S
GR
GS
0.149 GC
2 setlinecap
1 LJ
0.5 LW
N
521.5 312.1 M
517.035 312.1 L
S
GR
GS
0.149 GC
2 setlinecap
1 LJ
0.5 LW
N
521.5 242.2 M
517.035 242.2 L
S
GR
GS
0.149 GC
2 setlinecap
1 LJ
0.5 LW
N
521.5 172.3 M
517.035 172.3 L
S
GR
GS
0.149 GC
2 setlinecap
1 LJ
0.5 LW
N
521.5 102.4 M
517.035 102.4 L
S
GR
GS
0.149 GC
2 setlinecap
1 LJ
0.5 LW
N
521.5 32.5 M
517.035 32.5 L
S
GR
GS
[1 0 0 1 69 382] CT
0.149 GC
/Helvetica 20 F
GS
[1 0 0 1 0 0] CT
-12 5.5 moveto 
1 -1 scale
(0) t 
GR
GR
GS
[1 0 0 1 69 312.10001] CT
0.149 GC
/Helvetica 20 F
GS
[1 0 0 1 0 0] CT
-28 5.5 moveto 
1 -1 scale
(0.2) t 
GR
GR
GS
[1 0 0 1 69 242.2] CT
0.149 GC
/Helvetica 20 F
GS
[1 0 0 1 0 0] CT
-28 5.5 moveto 
1 -1 scale
(0.4) t 
GR
GR
GS
[1 0 0 1 69 172.29999] CT
0.149 GC
/Helvetica 20 F
GS
[1 0 0 1 0 0] CT
-28 5.5 moveto 
1 -1 scale
(0.6) t 
GR
GR
GS
[1 0 0 1 69 102.39999] CT
0.149 GC
/Helvetica 20 F
GS
[1 0 0 1 0 0] CT
-28 5.5 moveto 
1 -1 scale
(0.8) t 
GR
GR
GS
[1 0 0 1 69 32.5] CT
0.149 GC
/Helvetica 20 F
GS
[1 0 0 1 0 0] CT
-12 5.5 moveto 
1 -1 scale
(1) t 
GR
GR
GS
[0 -1 1 0 38 207.24983] CT
0.149 GC
/Helvetica 22 F
GS
[1 0 0 1 0 0] CT
-80.5 -6 moveto 
1 -1 scale
(Cosine similarity) t 
GR
GR
GS
0 0 1 RC
1 LJ
2 LW
N
79.465 380.94 M
97.325 284.046 L
115.185 123.422 L
133.045 57.291 L
150.905 37.771 L
168.765 35.08 L
186.625 34.542 L
204.485 34.078 L
222.345 33.943 L
240.205 33.782 L
258.065 33.692 L
275.925 33.641 L
293.785 33.507 L
311.645 33.379 L
329.505 33.336 L
347.365 33.31 L
365.225 33.189 L
383.085 33.192 L
400.945 33.162 L
418.805 33.157 L
436.665 33.058 L
454.525 33.088 L
472.385 33.031 L
490.245 33.008 L
508.105 32.976 L
S
GR
GS
0 0 1 RC
1 LJ
2 LW
N
82.5 380.5 M
81.621 378.379 L
79.5 377.5 L
77.379 378.379 L
76.5 380.5 L
77.379 382.621 L
79.5 383.5 L
81.621 382.621 L
cp
S
GR
GS
0 0 1 RC
1 LJ
2 LW
N
100.5 284.5 M
99.621 282.379 L
97.5 281.5 L
95.379 282.379 L
94.5 284.5 L
95.379 286.621 L
97.5 287.5 L
99.621 286.621 L
cp
S
GR
GS
0 0 1 RC
1 LJ
2 LW
N
118.5 123.5 M
117.621 121.379 L
115.5 120.5 L
113.379 121.379 L
112.5 123.5 L
113.379 125.621 L
115.5 126.5 L
117.621 125.621 L
cp
S
GR
GS
0 0 1 RC
1 LJ
2 LW
N
136.5 57.5 M
135.621 55.379 L
133.5 54.5 L
131.379 55.379 L
130.5 57.5 L
131.379 59.621 L
133.5 60.5 L
135.621 59.621 L
cp
S
GR
GS
0 0 1 RC
1 LJ
2 LW
N
153.5 37.5 M
152.621 35.379 L
150.5 34.5 L
148.379 35.379 L
147.5 37.5 L
148.379 39.621 L
150.5 40.5 L
152.621 39.621 L
cp
S
GR
GS
0 0 1 RC
1 LJ
2 LW
N
171.5 35.5 M
170.621 33.379 L
168.5 32.5 L
166.379 33.379 L
165.5 35.5 L
166.379 37.621 L
168.5 38.5 L
170.621 37.621 L
cp
S
GR
GS
0 0 1 RC
1 LJ
2 LW
N
189.5 34.5 M
188.621 32.379 L
186.5 31.5 L
184.379 32.379 L
183.5 34.5 L
184.379 36.621 L
186.5 37.5 L
188.621 36.621 L
cp
S
GR
GS
0 0 1 RC
1 LJ
2 LW
N
207.5 34.5 M
206.621 32.379 L
204.5 31.5 L
202.379 32.379 L
201.5 34.5 L
202.379 36.621 L
204.5 37.5 L
206.621 36.621 L
cp
S
GR
GS
0 0 1 RC
1 LJ
2 LW
N
225.5 33.5 M
224.621 31.379 L
222.5 30.5 L
220.379 31.379 L
219.5 33.5 L
220.379 35.621 L
222.5 36.5 L
224.621 35.621 L
cp
S
GR
GS
0 0 1 RC
1 LJ
2 LW
N
243.5 33.5 M
242.621 31.379 L
240.5 30.5 L
238.379 31.379 L
237.5 33.5 L
238.379 35.621 L
240.5 36.5 L
242.621 35.621 L
cp
S
GR
GS
0 0 1 RC
1 LJ
2 LW
N
261.5 33.5 M
260.621 31.379 L
258.5 30.5 L
256.379 31.379 L
255.5 33.5 L
256.379 35.621 L
258.5 36.5 L
260.621 35.621 L
cp
S
GR
GS
0 0 1 RC
1 LJ
2 LW
N
278.5 33.5 M
277.621 31.379 L
275.5 30.5 L
273.379 31.379 L
272.5 33.5 L
273.379 35.621 L
275.5 36.5 L
277.621 35.621 L
cp
S
GR
GS
0 0 1 RC
1 LJ
2 LW
N
296.5 33.5 M
295.621 31.379 L
293.5 30.5 L
291.379 31.379 L
290.5 33.5 L
291.379 35.621 L
293.5 36.5 L
295.621 35.621 L
cp
S
GR
GS
0 0 1 RC
1 LJ
2 LW
N
314.5 33.5 M
313.621 31.379 L
311.5 30.5 L
309.379 31.379 L
308.5 33.5 L
309.379 35.621 L
311.5 36.5 L
313.621 35.621 L
cp
S
GR
GS
0 0 1 RC
1 LJ
2 LW
N
332.5 33.5 M
331.621 31.379 L
329.5 30.5 L
327.379 31.379 L
326.5 33.5 L
327.379 35.621 L
329.5 36.5 L
331.621 35.621 L
cp
S
GR
GS
0 0 1 RC
1 LJ
2 LW
N
350.5 33.5 M
349.621 31.379 L
347.5 30.5 L
345.379 31.379 L
344.5 33.5 L
345.379 35.621 L
347.5 36.5 L
349.621 35.621 L
cp
S
GR
GS
0 0 1 RC
1 LJ
2 LW
N
368.5 33.5 M
367.621 31.379 L
365.5 30.5 L
363.379 31.379 L
362.5 33.5 L
363.379 35.621 L
365.5 36.5 L
367.621 35.621 L
cp
S
GR
GS
0 0 1 RC
1 LJ
2 LW
N
386.5 33.5 M
385.621 31.379 L
383.5 30.5 L
381.379 31.379 L
380.5 33.5 L
381.379 35.621 L
383.5 36.5 L
385.621 35.621 L
cp
S
GR
GS
0 0 1 RC
1 LJ
2 LW
N
403.5 33.5 M
402.621 31.379 L
400.5 30.5 L
398.379 31.379 L
397.5 33.5 L
398.379 35.621 L
400.5 36.5 L
402.621 35.621 L
cp
S
GR
GS
0 0 1 RC
1 LJ
2 LW
N
421.5 33.5 M
420.621 31.379 L
418.5 30.5 L
416.379 31.379 L
415.5 33.5 L
416.379 35.621 L
418.5 36.5 L
420.621 35.621 L
cp
S
GR
GS
0 0 1 RC
1 LJ
2 LW
N
439.5 33.5 M
438.621 31.379 L
436.5 30.5 L
434.379 31.379 L
433.5 33.5 L
434.379 35.621 L
436.5 36.5 L
438.621 35.621 L
cp
S
GR
GS
0 0 1 RC
1 LJ
2 LW
N
457.5 33.5 M
456.621 31.379 L
454.5 30.5 L
452.379 31.379 L
451.5 33.5 L
452.379 35.621 L
454.5 36.5 L
456.621 35.621 L
cp
S
GR
GS
0 0 1 RC
1 LJ
2 LW
N
475.5 33.5 M
474.621 31.379 L
472.5 30.5 L
470.379 31.379 L
469.5 33.5 L
470.379 35.621 L
472.5 36.5 L
474.621 35.621 L
cp
S
GR
GS
0 0 1 RC
1 LJ
2 LW
N
493.5 33.5 M
492.621 31.379 L
490.5 30.5 L
488.379 31.379 L
487.5 33.5 L
488.379 35.621 L
490.5 36.5 L
492.621 35.621 L
cp
S
GR
GS
0 0 1 RC
1 LJ
2 LW
N
511.5 32.5 M
510.621 30.379 L
508.5 29.5 L
506.379 30.379 L
505.5 32.5 L
506.379 34.621 L
508.5 35.5 L
510.621 34.621 L
cp
S
GR
GS
1 0 0 RC
1 LJ
2 LW
N
79.465 381.884 M
97.325 375.167 L
115.185 342.386 L
133.045 287.428 L
150.905 224.527 L
168.765 169.81 L
186.625 123.267 L
204.485 91.812 L
222.345 70.673 L
240.205 57.061 L
258.065 47.795 L
275.925 43.329 L
293.785 39.03 L
311.645 37.219 L
329.505 35.85 L
347.365 35.264 L
365.225 35.034 L
383.085 34.783 L
400.945 34.743 L
418.805 34.583 L
436.665 34.48 L
454.525 34.334 L
472.385 34.257 L
490.245 34.162 L
508.105 34.135 L
S
GR
GS
1 0 0 RC
10.0 ML
2 LW
N
77.16 383.84 M
77.16 379.16 L
81.84 379.16 L
81.84 383.84 L
cp
S
GR
GS
1 0 0 RC
10.0 ML
2 LW
N
95.16 377.84 M
95.16 373.16 L
99.84 373.16 L
99.84 377.84 L
cp
S
GR
GS
1 0 0 RC
10.0 ML
2 LW
N
113.16 344.84 M
113.16 340.16 L
117.84 340.16 L
117.84 344.84 L
cp
S
GR
GS
1 0 0 RC
10.0 ML
2 LW
N
131.16 289.84 M
131.16 285.16 L
135.84 285.16 L
135.84 289.84 L
cp
S
GR
GS
1 0 0 RC
10.0 ML
2 LW
N
148.16 226.84 M
148.16 222.16 L
152.84 222.16 L
152.84 226.84 L
cp
S
GR
GS
1 0 0 RC
10.0 ML
2 LW
N
166.16 171.84 M
166.16 167.16 L
170.84 167.16 L
170.84 171.84 L
cp
S
GR
GS
1 0 0 RC
10.0 ML
2 LW
N
184.16 125.84 M
184.16 121.16 L
188.84 121.16 L
188.84 125.84 L
cp
S
GR
GS
1 0 0 RC
10.0 ML
2 LW
N
202.16 93.84 M
202.16 89.16 L
206.84 89.16 L
206.84 93.84 L
cp
S
GR
GS
1 0 0 RC
10.0 ML
2 LW
N
220.16 72.84 M
220.16 68.16 L
224.84 68.16 L
224.84 72.84 L
cp
S
GR
GS
1 0 0 RC
10.0 ML
2 LW
N
238.16 59.84 M
238.16 55.16 L
242.84 55.16 L
242.84 59.84 L
cp
S
GR
GS
1 0 0 RC
10.0 ML
2 LW
N
256.16 49.84 M
256.16 45.16 L
260.84 45.16 L
260.84 49.84 L
cp
S
GR
GS
1 0 0 RC
10.0 ML
2 LW
N
273.16 45.84 M
273.16 41.16 L
277.84 41.16 L
277.84 45.84 L
cp
S
GR
GS
1 0 0 RC
10.0 ML
2 LW
N
291.16 41.84 M
291.16 37.16 L
295.84 37.16 L
295.84 41.84 L
cp
S
GR
GS
1 0 0 RC
10.0 ML
2 LW
N
309.16 39.84 M
309.16 35.16 L
313.84 35.16 L
313.84 39.84 L
cp
S
GR
GS
1 0 0 RC
10.0 ML
2 LW
N
327.16 37.84 M
327.16 33.16 L
331.84 33.16 L
331.84 37.84 L
cp
S
GR
GS
1 0 0 RC
10.0 ML
2 LW
N
345.16 37.84 M
345.16 33.16 L
349.84 33.16 L
349.84 37.84 L
cp
S
GR
GS
1 0 0 RC
10.0 ML
2 LW
N
363.16 37.84 M
363.16 33.16 L
367.84 33.16 L
367.84 37.84 L
cp
S
GR
GS
1 0 0 RC
10.0 ML
2 LW
N
381.16 36.84 M
381.16 32.16 L
385.84 32.16 L
385.84 36.84 L
cp
S
GR
GS
1 0 0 RC
10.0 ML
2 LW
N
398.16 36.84 M
398.16 32.16 L
402.84 32.16 L
402.84 36.84 L
cp
S
GR
GS
1 0 0 RC
10.0 ML
2 LW
N
416.16 36.84 M
416.16 32.16 L
420.84 32.16 L
420.84 36.84 L
cp
S
GR
GS
1 0 0 RC
10.0 ML
2 LW
N
434.16 36.84 M
434.16 32.16 L
438.84 32.16 L
438.84 36.84 L
cp
S
GR
GS
1 0 0 RC
10.0 ML
2 LW
N
452.16 36.84 M
452.16 32.16 L
456.84 32.16 L
456.84 36.84 L
cp
S
GR
GS
1 0 0 RC
10.0 ML
2 LW
N
470.16 36.84 M
470.16 32.16 L
474.84 32.16 L
474.84 36.84 L
cp
S
GR
GS
1 0 0 RC
10.0 ML
2 LW
N
488.16 36.84 M
488.16 32.16 L
492.84 32.16 L
492.84 36.84 L
cp
S
GR
GS
1 0 0 RC
10.0 ML
2 LW
N
506.16 36.84 M
506.16 32.16 L
510.84 32.16 L
510.84 36.84 L
cp
S
GR
GS
0 1 0 RC
1 LJ
2 LW
N
79.465 381.829 M
97.325 378.746 L
115.185 370.667 L
133.045 350.848 L
150.905 318.822 L
168.765 282.477 L
186.625 244.227 L
204.485 206.22 L
222.345 173.35 L
240.205 139.053 L
258.065 118.666 L
275.925 98.462 L
293.785 81.092 L
311.645 71.368 L
329.505 63.616 L
347.365 54.243 L
365.225 50.138 L
383.085 46.419 L
400.945 42.787 L
418.805 40.613 L
436.665 38.737 L
454.525 37.527 L
472.385 36.854 L
490.245 36.533 L
508.105 35.776 L
S
GR
GS
0 1 0 RC
10.0 ML
2 LW
N
76.037 383.5 M
82.963 383.5 L
79.5 377.501 L
cp
S
GR
GS
0 1 0 RC
10.0 ML
2 LW
N
94.037 380.5 M
100.963 380.5 L
97.5 374.501 L
cp
S
GR
GS
0 1 0 RC
10.0 ML
2 LW
N
112.037 372.5 M
118.963 372.5 L
115.5 366.501 L
cp
S
GR
GS
0 1 0 RC
10.0 ML
2 LW
N
130.037 352.5 M
136.963 352.5 L
133.5 346.501 L
cp
S
GR
GS
0 1 0 RC
10.0 ML
2 LW
N
147.037 320.5 M
153.963 320.5 L
150.5 314.501 L
cp
S
GR
GS
0 1 0 RC
10.0 ML
2 LW
N
165.037 284.5 M
171.963 284.5 L
168.5 278.501 L
cp
S
GR
GS
0 1 0 RC
10.0 ML
2 LW
N
183.037 246.499 M
189.963 246.499 L
186.5 240.501 L
cp
S
GR
GS
0 1 0 RC
10.0 ML
2 LW
N
201.037 208.499 M
207.963 208.499 L
204.5 202.501 L
cp
S
GR
GS
0 1 0 RC
10.0 ML
2 LW
N
219.037 175.499 M
225.963 175.499 L
222.5 169.501 L
cp
S
GR
GS
0 1 0 RC
10.0 ML
2 LW
N
237.037 141.499 M
243.963 141.499 L
240.5 135.501 L
cp
S
GR
GS
0 1 0 RC
10.0 ML
2 LW
N
255.037 120.499 M
261.963 120.499 L
258.5 114.501 L
cp
S
GR
GS
0 1 0 RC
10.0 ML
2 LW
N
272.037 100.499 M
278.963 100.499 L
275.5 94.501 L
cp
S
GR
GS
0 1 0 RC
10.0 ML
2 LW
N
290.037 83.499 M
296.963 83.499 L
293.5 77.501 L
cp
S
GR
GS
0 1 0 RC
10.0 ML
2 LW
N
308.037 73.499 M
314.963 73.499 L
311.5 67.501 L
cp
S
GR
GS
0 1 0 RC
10.0 ML
2 LW
N
326.037 65.499 M
332.963 65.499 L
329.5 59.501 L
cp
S
GR
GS
0 1 0 RC
10.0 ML
2 LW
N
344.037 56.5 M
350.963 56.5 L
347.5 50.501 L
cp
S
GR
GS
0 1 0 RC
10.0 ML
2 LW
N
362.037 52.5 M
368.963 52.5 L
365.5 46.501 L
cp
S
GR
GS
0 1 0 RC
10.0 ML
2 LW
N
380.037 48.5 M
386.963 48.5 L
383.5 42.501 L
cp
S
GR
GS
0 1 0 RC
10.0 ML
2 LW
N
397.037 44.5 M
403.963 44.5 L
400.5 38.501 L
cp
S
GR
GS
0 1 0 RC
10.0 ML
2 LW
N
415.037 42.5 M
421.963 42.5 L
418.5 36.501 L
cp
S
GR
GS
0 1 0 RC
10.0 ML
2 LW
N
433.037 40.5 M
439.963 40.5 L
436.5 34.501 L
cp
S
GR
GS
0 1 0 RC
10.0 ML
2 LW
N
451.037 39.5 M
457.963 39.5 L
454.5 33.501 L
cp
S
GR
GS
0 1 0 RC
10.0 ML
2 LW
N
469.037 38.5 M
475.963 38.5 L
472.5 32.501 L
cp
S
GR
GS
0 1 0 RC
10.0 ML
2 LW
N
487.037 38.5 M
493.963 38.5 L
490.5 32.501 L
cp
S
GR
GS
0 1 0 RC
10.0 ML
2 LW
N
505.037 37.5 M
511.963 37.5 L
508.5 31.501 L
cp
S
GR
GS
0 0 1 RC
[8 8] 0 setdash
2 LJ
2 LW
N
79.465 379.556 M
97.325 350.554 L
115.185 320.35 L
133.045 297.103 L
150.905 277.259 L
168.765 261.044 L
186.625 247.536 L
204.485 235.059 L
222.345 224.133 L
240.205 214.484 L
258.065 205.425 L
275.925 198.419 L
293.785 190.212 L
311.645 183.887 L
329.505 177.608 L
347.365 172.465 L
365.225 166.742 L
383.085 161.755 L
400.945 157.089 L
418.805 153.035 L
436.665 148.828 L
454.525 145.572 L
472.385 141.424 L
490.245 138.268 L
508.105 135.232 L
S
GR
GS
0 0 1 RC
1 LJ
2 LW
N
82.5 379.5 M
81.621 377.379 L
79.5 376.5 L
77.379 377.379 L
76.5 379.5 L
77.379 381.621 L
79.5 382.5 L
81.621 381.621 L
cp
S
GR
GS
0 0 1 RC
1 LJ
2 LW
N
100.5 350.5 M
99.621 348.379 L
97.5 347.5 L
95.379 348.379 L
94.5 350.5 L
95.379 352.621 L
97.5 353.5 L
99.621 352.621 L
cp
S
GR
GS
0 0 1 RC
1 LJ
2 LW
N
118.5 320.5 M
117.621 318.379 L
115.5 317.5 L
113.379 318.379 L
112.5 320.5 L
113.379 322.621 L
115.5 323.5 L
117.621 322.621 L
cp
S
GR
GS
0 0 1 RC
1 LJ
2 LW
N
136.5 297.5 M
135.621 295.379 L
133.5 294.5 L
131.379 295.379 L
130.5 297.5 L
131.379 299.621 L
133.5 300.5 L
135.621 299.621 L
cp
S
GR
GS
0 0 1 RC
1 LJ
2 LW
N
153.5 277.5 M
152.621 275.379 L
150.5 274.5 L
148.379 275.379 L
147.5 277.5 L
148.379 279.621 L
150.5 280.5 L
152.621 279.621 L
cp
S
GR
GS
0 0 1 RC
1 LJ
2 LW
N
171.5 261.5 M
170.621 259.379 L
168.5 258.5 L
166.379 259.379 L
165.5 261.5 L
166.379 263.621 L
168.5 264.5 L
170.621 263.621 L
cp
S
GR
GS
0 0 1 RC
1 LJ
2 LW
N
189.5 247.5 M
188.621 245.379 L
186.5 244.5 L
184.379 245.379 L
183.5 247.5 L
184.379 249.621 L
186.5 250.5 L
188.621 249.621 L
cp
S
GR
GS
0 0 1 RC
1 LJ
2 LW
N
207.5 235.5 M
206.621 233.379 L
204.5 232.5 L
202.379 233.379 L
201.5 235.5 L
202.379 237.621 L
204.5 238.5 L
206.621 237.621 L
cp
S
GR
GS
0 0 1 RC
1 LJ
2 LW
N
225.5 224.5 M
224.621 222.379 L
222.5 221.5 L
220.379 222.379 L
219.5 224.5 L
220.379 226.621 L
222.5 227.5 L
224.621 226.621 L
cp
S
GR
GS
0 0 1 RC
1 LJ
2 LW
N
243.5 214.5 M
242.621 212.379 L
240.5 211.5 L
238.379 212.379 L
237.5 214.5 L
238.379 216.621 L
240.5 217.5 L
242.621 216.621 L
cp
S
GR
GS
0 0 1 RC
1 LJ
2 LW
N
261.5 205.5 M
260.621 203.379 L
258.5 202.5 L
256.379 203.379 L
255.5 205.5 L
256.379 207.621 L
258.5 208.5 L
260.621 207.621 L
cp
S
GR
GS
0 0 1 RC
1 LJ
2 LW
N
278.5 198.5 M
277.621 196.379 L
275.5 195.5 L
273.379 196.379 L
272.5 198.5 L
273.379 200.621 L
275.5 201.5 L
277.621 200.621 L
cp
S
GR
GS
0 0 1 RC
1 LJ
2 LW
N
296.5 190.5 M
295.621 188.379 L
293.5 187.5 L
291.379 188.379 L
290.5 190.5 L
291.379 192.621 L
293.5 193.5 L
295.621 192.621 L
cp
S
GR
GS
0 0 1 RC
1 LJ
2 LW
N
314.5 183.5 M
313.621 181.379 L
311.5 180.5 L
309.379 181.379 L
308.5 183.5 L
309.379 185.621 L
311.5 186.5 L
313.621 185.621 L
cp
S
GR
GS
0 0 1 RC
1 LJ
2 LW
N
332.5 177.5 M
331.621 175.379 L
329.5 174.5 L
327.379 175.379 L
326.5 177.5 L
327.379 179.621 L
329.5 180.5 L
331.621 179.621 L
cp
S
GR
GS
0 0 1 RC
1 LJ
2 LW
N
350.5 172.5 M
349.621 170.379 L
347.5 169.5 L
345.379 170.379 L
344.5 172.5 L
345.379 174.621 L
347.5 175.5 L
349.621 174.621 L
cp
S
GR
GS
0 0 1 RC
1 LJ
2 LW
N
368.5 166.5 M
367.621 164.379 L
365.5 163.5 L
363.379 164.379 L
362.5 166.5 L
363.379 168.621 L
365.5 169.5 L
367.621 168.621 L
cp
S
GR
GS
0 0 1 RC
1 LJ
2 LW
N
386.5 161.5 M
385.621 159.379 L
383.5 158.5 L
381.379 159.379 L
380.5 161.5 L
381.379 163.621 L
383.5 164.5 L
385.621 163.621 L
cp
S
GR
GS
0 0 1 RC
1 LJ
2 LW
N
403.5 157.5 M
402.621 155.379 L
400.5 154.5 L
398.379 155.379 L
397.5 157.5 L
398.379 159.621 L
400.5 160.5 L
402.621 159.621 L
cp
S
GR
GS
0 0 1 RC
1 LJ
2 LW
N
421.5 153.5 M
420.621 151.379 L
418.5 150.5 L
416.379 151.379 L
415.5 153.5 L
416.379 155.621 L
418.5 156.5 L
420.621 155.621 L
cp
S
GR
GS
0 0 1 RC
1 LJ
2 LW
N
439.5 148.5 M
438.621 146.379 L
436.5 145.5 L
434.379 146.379 L
433.5 148.5 L
434.379 150.621 L
436.5 151.5 L
438.621 150.621 L
cp
S
GR
GS
0 0 1 RC
1 LJ
2 LW
N
457.5 145.5 M
456.621 143.379 L
454.5 142.5 L
452.379 143.379 L
451.5 145.5 L
452.379 147.621 L
454.5 148.5 L
456.621 147.621 L
cp
S
GR
GS
0 0 1 RC
1 LJ
2 LW
N
475.5 141.5 M
474.621 139.379 L
472.5 138.5 L
470.379 139.379 L
469.5 141.5 L
470.379 143.621 L
472.5 144.5 L
474.621 143.621 L
cp
S
GR
GS
0 0 1 RC
1 LJ
2 LW
N
493.5 138.5 M
492.621 136.379 L
490.5 135.5 L
488.379 136.379 L
487.5 138.5 L
488.379 140.621 L
490.5 141.5 L
492.621 140.621 L
cp
S
GR
GS
0 0 1 RC
1 LJ
2 LW
N
511.5 135.5 M
510.621 133.379 L
508.5 132.5 L
506.379 133.379 L
505.5 135.5 L
506.379 137.621 L
508.5 138.5 L
510.621 137.621 L
cp
S
GR
GS
1 0 0 RC
[8 8] 0 setdash
2 LJ
2 LW
N
79.465 380.895 M
97.325 373.011 L
115.185 359.958 L
133.045 345.422 L
150.905 331.541 L
168.765 318.744 L
186.625 306.567 L
204.485 295.742 L
222.345 286.338 L
240.205 277.461 L
258.065 268.155 L
275.925 261.098 L
293.785 253.36 L
311.645 246.716 L
329.505 240.206 L
347.365 234.035 L
365.225 228.598 L
383.085 223.161 L
400.945 217.746 L
418.805 213.009 L
436.665 208.579 L
454.525 204.121 L
472.385 200.303 L
490.245 195.993 L
508.105 191.893 L
S
GR
GS
1 0 0 RC
10.0 ML
2 LW
N
77.16 382.84 M
77.16 378.16 L
81.84 378.16 L
81.84 382.84 L
cp
S
GR
GS
1 0 0 RC
10.0 ML
2 LW
N
95.16 375.84 M
95.16 371.16 L
99.84 371.16 L
99.84 375.84 L
cp
S
GR
GS
1 0 0 RC
10.0 ML
2 LW
N
113.16 361.84 M
113.16 357.16 L
117.84 357.16 L
117.84 361.84 L
cp
S
GR
GS
1 0 0 RC
10.0 ML
2 LW
N
131.16 347.84 M
131.16 343.16 L
135.84 343.16 L
135.84 347.84 L
cp
S
GR
GS
1 0 0 RC
10.0 ML
2 LW
N
148.16 333.84 M
148.16 329.16 L
152.84 329.16 L
152.84 333.84 L
cp
S
GR
GS
1 0 0 RC
10.0 ML
2 LW
N
166.16 320.84 M
166.16 316.16 L
170.84 316.16 L
170.84 320.84 L
cp
S
GR
GS
1 0 0 RC
10.0 ML
2 LW
N
184.16 308.84 M
184.16 304.16 L
188.84 304.16 L
188.84 308.84 L
cp
S
GR
GS
1 0 0 RC
10.0 ML
2 LW
N
202.16 297.84 M
202.16 293.16 L
206.84 293.16 L
206.84 297.84 L
cp
S
GR
GS
1 0 0 RC
10.0 ML
2 LW
N
220.16 288.84 M
220.16 284.16 L
224.84 284.16 L
224.84 288.84 L
cp
S
GR
GS
1 0 0 RC
10.0 ML
2 LW
N
238.16 279.84 M
238.16 275.16 L
242.84 275.16 L
242.84 279.84 L
cp
S
GR
GS
1 0 0 RC
10.0 ML
2 LW
N
256.16 270.84 M
256.16 266.16 L
260.84 266.16 L
260.84 270.84 L
cp
S
GR
GS
1 0 0 RC
10.0 ML
2 LW
N
273.16 263.84 M
273.16 259.16 L
277.84 259.16 L
277.84 263.84 L
cp
S
GR
GS
1 0 0 RC
10.0 ML
2 LW
N
291.16 255.84 M
291.16 251.16 L
295.84 251.16 L
295.84 255.84 L
cp
S
GR
GS
1 0 0 RC
10.0 ML
2 LW
N
309.16 248.84 M
309.16 244.16 L
313.84 244.16 L
313.84 248.84 L
cp
S
GR
GS
1 0 0 RC
10.0 ML
2 LW
N
327.16 242.84 M
327.16 238.16 L
331.84 238.16 L
331.84 242.84 L
cp
S
GR
GS
1 0 0 RC
10.0 ML
2 LW
N
345.16 236.84 M
345.16 232.16 L
349.84 232.16 L
349.84 236.84 L
cp
S
GR
GS
1 0 0 RC
10.0 ML
2 LW
N
363.16 230.84 M
363.16 226.16 L
367.84 226.16 L
367.84 230.84 L
cp
S
GR
GS
1 0 0 RC
10.0 ML
2 LW
N
381.16 225.84 M
381.16 221.16 L
385.84 221.16 L
385.84 225.84 L
cp
S
GR
GS
1 0 0 RC
10.0 ML
2 LW
N
398.16 219.84 M
398.16 215.16 L
402.84 215.16 L
402.84 219.84 L
cp
S
GR
GS
1 0 0 RC
10.0 ML
2 LW
N
416.16 215.84 M
416.16 211.16 L
420.84 211.16 L
420.84 215.84 L
cp
S
GR
GS
1 0 0 RC
10.0 ML
2 LW
N
434.16 210.84 M
434.16 206.16 L
438.84 206.16 L
438.84 210.84 L
cp
S
GR
GS
1 0 0 RC
10.0 ML
2 LW
N
452.16 206.84 M
452.16 202.16 L
456.84 202.16 L
456.84 206.84 L
cp
S
GR
GS
1 0 0 RC
10.0 ML
2 LW
N
470.16 202.84 M
470.16 198.16 L
474.84 198.16 L
474.84 202.84 L
cp
S
GR
GS
1 0 0 RC
10.0 ML
2 LW
N
488.16 197.84 M
488.16 193.16 L
492.84 193.16 L
492.84 197.84 L
cp
S
GR
GS
1 0 0 RC
10.0 ML
2 LW
N
506.16 193.84 M
506.16 189.16 L
510.84 189.16 L
510.84 193.84 L
cp
S
GR
GS
0 1 0 RC
[8 8] 0 setdash
2 LJ
2 LW
N
79.465 381.033 M
97.325 376.406 L
115.185 369.635 L
133.045 360.195 L
150.905 350.321 L
168.765 340.599 L
186.625 330.905 L
204.485 321.479 L
222.345 312.605 L
240.205 304.046 L
258.065 297.183 L
275.925 289.31 L
293.785 282.183 L
311.645 276.181 L
329.505 270.331 L
347.365 264.335 L
365.225 258.209 L
383.085 253.536 L
400.945 247.883 L
418.805 243.257 L
436.665 238.539 L
454.525 234.21 L
472.385 229.987 L
490.245 226.14 L
508.105 222.025 L
S
GR
GS
0 1 0 RC
10.0 ML
2 LW
N
76.037 383.5 M
82.963 383.5 L
79.5 377.501 L
cp
S
GR
GS
0 1 0 RC
10.0 ML
2 LW
N
94.037 378.5 M
100.963 378.5 L
97.5 372.501 L
cp
S
GR
GS
0 1 0 RC
10.0 ML
2 LW
N
112.037 371.5 M
118.963 371.5 L
115.5 365.501 L
cp
S
GR
GS
0 1 0 RC
10.0 ML
2 LW
N
130.037 362.5 M
136.963 362.5 L
133.5 356.501 L
cp
S
GR
GS
0 1 0 RC
10.0 ML
2 LW
N
147.037 352.5 M
153.963 352.5 L
150.5 346.501 L
cp
S
GR
GS
0 1 0 RC
10.0 ML
2 LW
N
165.037 342.5 M
171.963 342.5 L
168.5 336.501 L
cp
S
GR
GS
0 1 0 RC
10.0 ML
2 LW
N
183.037 332.5 M
189.963 332.5 L
186.5 326.501 L
cp
S
GR
GS
0 1 0 RC
10.0 ML
2 LW
N
201.037 323.5 M
207.963 323.5 L
204.5 317.501 L
cp
S
GR
GS
0 1 0 RC
10.0 ML
2 LW
N
219.037 314.5 M
225.963 314.5 L
222.5 308.501 L
cp
S
GR
GS
0 1 0 RC
10.0 ML
2 LW
N
237.037 306.5 M
243.963 306.5 L
240.5 300.501 L
cp
S
GR
GS
0 1 0 RC
10.0 ML
2 LW
N
255.037 299.5 M
261.963 299.5 L
258.5 293.501 L
cp
S
GR
GS
0 1 0 RC
10.0 ML
2 LW
N
272.037 291.5 M
278.963 291.5 L
275.5 285.501 L
cp
S
GR
GS
0 1 0 RC
10.0 ML
2 LW
N
290.037 284.5 M
296.963 284.5 L
293.5 278.501 L
cp
S
GR
GS
0 1 0 RC
10.0 ML
2 LW
N
308.037 278.5 M
314.963 278.5 L
311.5 272.501 L
cp
S
GR
GS
0 1 0 RC
10.0 ML
2 LW
N
326.037 272.5 M
332.963 272.5 L
329.5 266.501 L
cp
S
GR
GS
0 1 0 RC
10.0 ML
2 LW
N
344.037 266.5 M
350.963 266.5 L
347.5 260.501 L
cp
S
GR
GS
0 1 0 RC
10.0 ML
2 LW
N
362.037 260.5 M
368.963 260.5 L
365.5 254.501 L
cp
S
GR
GS
0 1 0 RC
10.0 ML
2 LW
N
380.037 255.499 M
386.963 255.499 L
383.5 249.501 L
cp
S
GR
GS
0 1 0 RC
10.0 ML
2 LW
N
397.037 249.499 M
403.963 249.499 L
400.5 243.501 L
cp
S
GR
GS
0 1 0 RC
10.0 ML
2 LW
N
415.037 245.499 M
421.963 245.499 L
418.5 239.501 L
cp
S
GR
GS
0 1 0 RC
10.0 ML
2 LW
N
433.037 240.499 M
439.963 240.499 L
436.5 234.501 L
cp
S
GR
GS
0 1 0 RC
10.0 ML
2 LW
N
451.037 236.499 M
457.963 236.499 L
454.5 230.501 L
cp
S
GR
GS
0 1 0 RC
10.0 ML
2 LW
N
469.037 231.499 M
475.963 231.499 L
472.5 225.501 L
cp
S
GR
GS
0 1 0 RC
10.0 ML
2 LW
N
487.037 228.499 M
493.963 228.499 L
490.5 222.501 L
cp
S
GR
GS
0 1 0 RC
10.0 ML
2 LW
N
505.037 224.499 M
511.963 224.499 L
508.5 218.501 L
cp
S
GR
GS
1 GC
N
310.5 372 M
310.5 254.5 L
511.5 254.5 L
511.5 372 L
cp
f
GR
GS
[1 0 0 1 349.5 265.75] CT
/Helvetica 18 F
GS
[1 0 0 1 0 0] CT
0 4.5 moveto 
1 -1 scale
(OneShot, s=5) t 
GR
GR
GS
0 0 1 RC
1 LJ
2 LW
N
316.5 265.75 M
346.5 265.75 L
S
GR
GS
0 0 1 RC
1 LJ
2 LW
N
334.5 265.5 M
333.621 263.379 L
331.5 262.5 L
329.379 263.379 L
328.5 265.5 L
329.379 267.621 L
331.5 268.5 L
333.621 267.621 L
cp
S
GR
GS
[1 0 0 1 349.5 284.75] CT
/Helvetica 18 F
GS
[1 0 0 1 0 0] CT
0 4.5 moveto 
1 -1 scale
(OneShot, s=15) t 
GR
GR
GS
1 0 0 RC
1 LJ
2 LW
N
316.5 284.75 M
346.5 284.75 L
S
GR
GS
1 0 0 RC
10.0 ML
2 LW
N
329.16 286.84 M
329.16 282.16 L
333.84 282.16 L
333.84 286.84 L
cp
S
GR
GS
[1 0 0 1 349.5 303.75] CT
/Helvetica 18 F
GS
[1 0 0 1 0 0] CT
0 4.5 moveto 
1 -1 scale
(OneShot, s=25) t 
GR
GR
GS
0 1 0 RC
1 LJ
2 LW
N
316.5 303.75 M
346.5 303.75 L
S
GR
GS
0 1 0 RC
10.0 ML
2 LW
N
328.037 305.5 M
334.963 305.5 L
331.5 299.501 L
cp
S
GR
GS
[1 0 0 1 349.5 322.75] CT
/Helvetica 18 F
GS
[1 0 0 1 0 0] CT
0 4.5 moveto 
1 -1 scale
(NLCDLASSO, s=5) t 
GR
GR
GS
0 0 1 RC
[8 8] 0 setdash
2 LJ
2 LW
N
316.5 322.75 M
346.5 322.75 L
S
GR
GS
0 0 1 RC
1 LJ
2 LW
N
334.5 322.5 M
333.621 320.379 L
331.5 319.5 L
329.379 320.379 L
328.5 322.5 L
329.379 324.621 L
331.5 325.5 L
333.621 324.621 L
cp
S
GR
GS
[1 0 0 1 349.5 341.75] CT
/Helvetica 18 F
GS
[1 0 0 1 0 0] CT
0 4.5 moveto 
1 -1 scale
(NLCDLASSO, s=15) t 
GR
GR
GS
1 0 0 RC
[8 8] 0 setdash
2 LJ
2 LW
N
316.5 341.75 M
346.5 341.75 L
S
GR
GS
1 0 0 RC
10.0 ML
2 LW
N
329.16 343.84 M
329.16 339.16 L
333.84 339.16 L
333.84 343.84 L
cp
S
GR
GS
[1 0 0 1 349.5 360.75] CT
/Helvetica 18 F
GS
[1 0 0 1 0 0] CT
0 4.5 moveto 
1 -1 scale
(NLCDLASSO, s=25) t 
GR
GR
GS
0 1 0 RC
[8 8] 0 setdash
2 LJ
2 LW
N
316.5 360.75 M
346.5 360.75 L
S
GR
GS
0 1 0 RC
10.0 ML
2 LW
N
328.037 362.5 M
334.963 362.5 L
331.5 356.501 L
cp
S
GR
GS
0.149 GC
10.0 ML
0.5 LW
N
310.5 372 M
310.5 254.5 L
511.5 254.5 L
511.5 372 L
cp
S
GR
%%Trailer
%%Pages: 1
%%EOF
