%!PS-Adobe-3.0 EPSF-3.0
%%Creator: (MATLAB, The Mathworks, Inc. Version 8.6.0.267246 \(R2015b\). Operating System: Mac OS X)
%%Title: ./RTs5log.eps
%%CreationDate: 2016-07-29T23:11:26
%%Pages: (atend)
%%BoundingBox:    20     0   534   410
%%LanguageLevel: 3
%%EndComments
%%BeginProlog
%%BeginResource: procset (Apache XML Graphics Std ProcSet) 1.2 0
%%Version: 1.2 0
%%Copyright: (Copyright 2001-2003,2010 The Apache Software Foundation. License terms: http://www.apache.org/licenses/LICENSE-2.0)
/bd{bind def}bind def
/ld{load def}bd
/GR/grestore ld
/M/moveto ld
/LJ/setlinejoin ld
/C/curveto ld
/f/fill ld
/LW/setlinewidth ld
/GC/setgray ld
/t/show ld
/N/newpath ld
/CT/concat ld
/cp/closepath ld
/S/stroke ld
/L/lineto ld
/CC/setcmykcolor ld
/A/ashow ld
/GS/gsave ld
/RC/setrgbcolor ld
/RM/rmoveto ld
/ML/setmiterlimit ld
/re {4 2 roll M
1 index 0 rlineto
0 exch rlineto
neg 0 rlineto
cp } bd
/_ctm matrix def
/_tm matrix def
/BT { _ctm currentmatrix pop matrix _tm copy pop 0 0 moveto } bd
/ET { _ctm setmatrix } bd
/iTm { _ctm setmatrix _tm concat } bd
/Tm { _tm astore pop iTm 0 0 moveto } bd
/ux 0.0 def
/uy 0.0 def
/F {
  /Tp exch def
  /Tf exch def
  Tf findfont Tp scalefont setfont
  /cf Tf def  /cs Tp def
} bd
/ULS {currentpoint /uy exch def /ux exch def} bd
/ULE {
  /Tcx currentpoint pop def
  gsave
  newpath
  cf findfont cs scalefont dup
  /FontMatrix get 0 get /Ts exch def /FontInfo get dup
  /UnderlinePosition get Ts mul /To exch def
  /UnderlineThickness get Ts mul /Tt exch def
  ux uy To add moveto  Tcx uy To add lineto
  Tt setlinewidth stroke
  grestore
} bd
/OLE {
  /Tcx currentpoint pop def
  gsave
  newpath
  cf findfont cs scalefont dup
  /FontMatrix get 0 get /Ts exch def /FontInfo get dup
  /UnderlinePosition get Ts mul /To exch def
  /UnderlineThickness get Ts mul /Tt exch def
  ux uy To add cs add moveto Tcx uy To add cs add lineto
  Tt setlinewidth stroke
  grestore
} bd
/SOE {
  /Tcx currentpoint pop def
  gsave
  newpath
  cf findfont cs scalefont dup
  /FontMatrix get 0 get /Ts exch def /FontInfo get dup
  /UnderlinePosition get Ts mul /To exch def
  /UnderlineThickness get Ts mul /Tt exch def
  ux uy To add cs 10 mul 26 idiv add moveto Tcx uy To add cs 10 mul 26 idiv add lineto
  Tt setlinewidth stroke
  grestore
} bd
/QT {
/Y22 exch store
/X22 exch store
/Y21 exch store
/X21 exch store
currentpoint
/Y21 load 2 mul add 3 div exch
/X21 load 2 mul add 3 div exch
/X21 load 2 mul /X22 load add 3 div
/Y21 load 2 mul /Y22 load add 3 div
/X22 load /Y22 load curveto
} bd
/SSPD {
dup length /d exch dict def
{
/v exch def
/k exch def
currentpagedevice k known {
/cpdv currentpagedevice k get def
v cpdv ne {
/upd false def
/nullv v type /nulltype eq def
/nullcpdv cpdv type /nulltype eq def
nullv nullcpdv or
{
/upd true def
} {
/sametype v type cpdv type eq def
sametype {
v type /arraytype eq {
/vlen v length def
/cpdvlen cpdv length def
vlen cpdvlen eq {
0 1 vlen 1 sub {
/i exch def
/obj v i get def
/cpdobj cpdv i get def
obj cpdobj ne {
/upd true def
exit
} if
} for
} {
/upd true def
} ifelse
} {
v type /dicttype eq {
v {
/dv exch def
/dk exch def
/cpddv cpdv dk get def
dv cpddv ne {
/upd true def
exit
} if
} forall
} {
/upd true def
} ifelse
} ifelse
} if
} ifelse
upd true eq {
d k v put
} if
} if
} if
} forall
d length 0 gt {
d setpagedevice
} if
} bd
%%EndResource
%%BeginResource: procset (Apache XML Graphics EPS ProcSet) 1.0 0
%%Version: 1.0 0
%%Copyright: (Copyright 2002-2003 The Apache Software Foundation. License terms: http://www.apache.org/licenses/LICENSE-2.0)
/BeginEPSF { %def
/b4_Inc_state save def         % Save state for cleanup
/dict_count countdictstack def % Count objects on dict stack
/op_count count 1 sub def      % Count objects on operand stack
userdict begin                 % Push userdict on dict stack
/showpage { } def              % Redefine showpage, { } = null proc
0 setgray 0 setlinecap         % Prepare graphics state
1 setlinewidth 0 setlinejoin
10 setmiterlimit [ ] 0 setdash newpath
/languagelevel where           % If level not equal to 1 then
{pop languagelevel             % set strokeadjust and
1 ne                           % overprint to their defaults.
{false setstrokeadjust false setoverprint
} if
} if
} bd
/EndEPSF { %def
count op_count sub {pop} repeat            % Clean up stacks
countdictstack dict_count sub {end} repeat
b4_Inc_state restore
} bd
%%EndResource
%FOPBeginFontDict
%%IncludeResource: font Courier-Bold
%%IncludeResource: font Helvetica
%%IncludeResource: font Courier-BoldOblique
%%IncludeResource: font Courier-Oblique
%%IncludeResource: font Times-Roman
%%IncludeResource: font Helvetica-BoldOblique
%%IncludeResource: font Helvetica-Bold
%%IncludeResource: font Helvetica-Oblique
%%IncludeResource: font Times-BoldItalic
%%IncludeResource: font Courier
%%IncludeResource: font Times-Italic
%%IncludeResource: font Times-Bold
%%IncludeResource: font Symbol
%%IncludeResource: font ZapfDingbats
%FOPEndFontDict
%%BeginResource: encoding WinAnsiEncoding
/WinAnsiEncoding [
/.notdef /.notdef /.notdef /.notdef /.notdef
/.notdef /.notdef /.notdef /.notdef /.notdef
/.notdef /.notdef /.notdef /.notdef /.notdef
/.notdef /.notdef /.notdef /.notdef /.notdef
/.notdef /.notdef /.notdef /.notdef /.notdef
/.notdef /.notdef /.notdef /.notdef /.notdef
/.notdef /.notdef /space /exclam /quotedbl
/numbersign /dollar /percent /ampersand /quotesingle
/parenleft /parenright /asterisk /plus /comma
/hyphen /period /slash /zero /one
/two /three /four /five /six
/seven /eight /nine /colon /semicolon
/less /equal /greater /question /at
/A /B /C /D /E
/F /G /H /I /J
/K /L /M /N /O
/P /Q /R /S /T
/U /V /W /X /Y
/Z /bracketleft /backslash /bracketright /asciicircum
/underscore /quoteleft /a /b /c
/d /e /f /g /h
/i /j /k /l /m
/n /o /p /q /r
/s /t /u /v /w
/x /y /z /braceleft /bar
/braceright /asciitilde /bullet /Euro /bullet
/quotesinglbase /florin /quotedblbase /ellipsis /dagger
/daggerdbl /circumflex /perthousand /Scaron /guilsinglleft
/OE /bullet /Zcaron /bullet /bullet
/quoteleft /quoteright /quotedblleft /quotedblright /bullet
/endash /emdash /asciitilde /trademark /scaron
/guilsinglright /oe /bullet /zcaron /Ydieresis
/space /exclamdown /cent /sterling /currency
/yen /brokenbar /section /dieresis /copyright
/ordfeminine /guillemotleft /logicalnot /sfthyphen /registered
/macron /degree /plusminus /twosuperior /threesuperior
/acute /mu /paragraph /middot /cedilla
/onesuperior /ordmasculine /guillemotright /onequarter /onehalf
/threequarters /questiondown /Agrave /Aacute /Acircumflex
/Atilde /Adieresis /Aring /AE /Ccedilla
/Egrave /Eacute /Ecircumflex /Edieresis /Igrave
/Iacute /Icircumflex /Idieresis /Eth /Ntilde
/Ograve /Oacute /Ocircumflex /Otilde /Odieresis
/multiply /Oslash /Ugrave /Uacute /Ucircumflex
/Udieresis /Yacute /Thorn /germandbls /agrave
/aacute /acircumflex /atilde /adieresis /aring
/ae /ccedilla /egrave /eacute /ecircumflex
/edieresis /igrave /iacute /icircumflex /idieresis
/eth /ntilde /ograve /oacute /ocircumflex
/otilde /odieresis /divide /oslash /ugrave
/uacute /ucircumflex /udieresis /yacute /thorn
/ydieresis
] def
%%EndResource
%FOPBeginFontReencode
/Courier-Bold findfont
dup length dict begin
  {1 index /FID ne {def} {pop pop} ifelse} forall
  /Encoding WinAnsiEncoding def
  currentdict
end
/Courier-Bold exch definefont pop
/Helvetica findfont
dup length dict begin
  {1 index /FID ne {def} {pop pop} ifelse} forall
  /Encoding WinAnsiEncoding def
  currentdict
end
/Helvetica exch definefont pop
/Courier-BoldOblique findfont
dup length dict begin
  {1 index /FID ne {def} {pop pop} ifelse} forall
  /Encoding WinAnsiEncoding def
  currentdict
end
/Courier-BoldOblique exch definefont pop
/Courier-Oblique findfont
dup length dict begin
  {1 index /FID ne {def} {pop pop} ifelse} forall
  /Encoding WinAnsiEncoding def
  currentdict
end
/Courier-Oblique exch definefont pop
/Times-Roman findfont
dup length dict begin
  {1 index /FID ne {def} {pop pop} ifelse} forall
  /Encoding WinAnsiEncoding def
  currentdict
end
/Times-Roman exch definefont pop
/Helvetica-BoldOblique findfont
dup length dict begin
  {1 index /FID ne {def} {pop pop} ifelse} forall
  /Encoding WinAnsiEncoding def
  currentdict
end
/Helvetica-BoldOblique exch definefont pop
/Helvetica-Bold findfont
dup length dict begin
  {1 index /FID ne {def} {pop pop} ifelse} forall
  /Encoding WinAnsiEncoding def
  currentdict
end
/Helvetica-Bold exch definefont pop
/Helvetica-Oblique findfont
dup length dict begin
  {1 index /FID ne {def} {pop pop} ifelse} forall
  /Encoding WinAnsiEncoding def
  currentdict
end
/Helvetica-Oblique exch definefont pop
/Times-BoldItalic findfont
dup length dict begin
  {1 index /FID ne {def} {pop pop} ifelse} forall
  /Encoding WinAnsiEncoding def
  currentdict
end
/Times-BoldItalic exch definefont pop
/Courier findfont
dup length dict begin
  {1 index /FID ne {def} {pop pop} ifelse} forall
  /Encoding WinAnsiEncoding def
  currentdict
end
/Courier exch definefont pop
/Times-Italic findfont
dup length dict begin
  {1 index /FID ne {def} {pop pop} ifelse} forall
  /Encoding WinAnsiEncoding def
  currentdict
end
/Times-Italic exch definefont pop
/Times-Bold findfont
dup length dict begin
  {1 index /FID ne {def} {pop pop} ifelse} forall
  /Encoding WinAnsiEncoding def
  currentdict
end
/Times-Bold exch definefont pop
%FOPEndFontReencode
%%EndProlog
%%Page: 1 1
%%PageBoundingBox: 0 0 576 432
%%BeginPageSetup
[1 0 0 -1 0 432] CT
%%EndPageSetup
GS
1 GC
N
0 0 576 432 re
f
GR
GS
1 GC
N
0 0 576 432 re
f
GR
GS
1 GC
N
75 375 M
521.5 375 L
521.5 32.5 L
75 32.5 L
cp
f
GR
GS
0.775 GC
[1 3] 0 setdash
2 LJ
0.5 LW
N
119.498 375 M
119.498 32.5 L
S
GR
GS
0.775 GC
[1 3] 0 setdash
2 LJ
0.5 LW
N
145.527 375 M
145.527 32.5 L
S
GR
GS
0.775 GC
[1 3] 0 setdash
2 LJ
0.5 LW
N
163.995 375 M
163.995 32.5 L
S
GR
GS
0.775 GC
[1 3] 0 setdash
2 LJ
0.5 LW
N
178.321 375 M
178.321 32.5 L
S
GR
GS
0.775 GC
[1 3] 0 setdash
2 LJ
0.5 LW
N
190.025 375 M
190.025 32.5 L
S
GR
GS
0.775 GC
[1 3] 0 setdash
2 LJ
0.5 LW
N
199.921 375 M
199.921 32.5 L
S
GR
GS
0.775 GC
[1 3] 0 setdash
2 LJ
0.5 LW
N
208.493 375 M
208.493 32.5 L
S
GR
GS
0.775 GC
[1 3] 0 setdash
2 LJ
0.5 LW
N
216.055 375 M
216.055 32.5 L
S
GR
GS
0.775 GC
[1 3] 0 setdash
2 LJ
0.5 LW
N
267.316 375 M
267.316 32.5 L
S
GR
GS
0.775 GC
[1 3] 0 setdash
2 LJ
0.5 LW
N
293.346 375 M
293.346 32.5 L
S
GR
GS
0.775 GC
[1 3] 0 setdash
2 LJ
0.5 LW
N
311.814 375 M
311.814 32.5 L
S
GR
GS
0.775 GC
[1 3] 0 setdash
2 LJ
0.5 LW
N
326.139 375 M
326.139 32.5 L
S
GR
GS
0.775 GC
[1 3] 0 setdash
2 LJ
0.5 LW
N
337.843 375 M
337.843 32.5 L
S
GR
GS
0.775 GC
[1 3] 0 setdash
2 LJ
0.5 LW
N
347.739 375 M
347.739 32.5 L
S
GR
GS
0.775 GC
[1 3] 0 setdash
2 LJ
0.5 LW
N
356.312 375 M
356.312 32.5 L
S
GR
GS
0.775 GC
[1 3] 0 setdash
2 LJ
0.5 LW
N
363.873 375 M
363.873 32.5 L
S
GR
GS
0.775 GC
[1 3] 0 setdash
2 LJ
0.5 LW
N
415.134 375 M
415.134 32.5 L
S
GR
GS
0.775 GC
[1 3] 0 setdash
2 LJ
0.5 LW
N
441.164 375 M
441.164 32.5 L
S
GR
GS
0.775 GC
[1 3] 0 setdash
2 LJ
0.5 LW
N
459.632 375 M
459.632 32.5 L
S
GR
GS
0.775 GC
[1 3] 0 setdash
2 LJ
0.5 LW
N
473.957 375 M
473.957 32.5 L
S
GR
GS
0.775 GC
[1 3] 0 setdash
2 LJ
0.5 LW
N
485.662 375 M
485.662 32.5 L
S
GR
GS
0.775 GC
[1 3] 0 setdash
2 LJ
0.5 LW
N
495.558 375 M
495.558 32.5 L
S
GR
GS
0.775 GC
[1 3] 0 setdash
2 LJ
0.5 LW
N
504.13 375 M
504.13 32.5 L
S
GR
GS
0.775 GC
[1 3] 0 setdash
2 LJ
0.5 LW
N
511.691 375 M
511.691 32.5 L
S
GR
GS
0.873 GC
1 LJ
0.5 LW
N
75 375 M
75 32.5 L
S
GR
GS
0.873 GC
1 LJ
0.5 LW
N
222.818 375 M
222.818 32.5 L
S
GR
GS
0.873 GC
1 LJ
0.5 LW
N
370.637 375 M
370.637 32.5 L
S
GR
GS
0.873 GC
1 LJ
0.5 LW
N
518.455 375 M
518.455 32.5 L
S
GR
GS
0.873 GC
1 LJ
0.5 LW
N
521.5 375 M
75 375 L
S
GR
GS
0.873 GC
1 LJ
0.5 LW
N
521.5 326.071 M
75 326.071 L
S
GR
GS
0.873 GC
1 LJ
0.5 LW
N
521.5 277.143 M
75 277.143 L
S
GR
GS
0.873 GC
1 LJ
0.5 LW
N
521.5 228.214 M
75 228.214 L
S
GR
GS
0.873 GC
1 LJ
0.5 LW
N
521.5 179.286 M
75 179.286 L
S
GR
GS
0.873 GC
1 LJ
0.5 LW
N
521.5 130.357 M
75 130.357 L
S
GR
GS
0.873 GC
1 LJ
0.5 LW
N
521.5 81.429 M
75 81.429 L
S
GR
GS
0.873 GC
1 LJ
0.5 LW
N
521.5 32.5 M
75 32.5 L
S
GR
GS
0.149 GC
2 setlinecap
1 LJ
0.5 LW
N
75 375 M
521.5 375 L
S
GR
GS
0.149 GC
2 setlinecap
1 LJ
0.5 LW
N
75 32.5 M
521.5 32.5 L
S
GR
GS
0.149 GC
2 setlinecap
1 LJ
0.5 LW
N
75 375 M
75 370.535 L
S
GR
GS
0.149 GC
2 setlinecap
1 LJ
0.5 LW
N
222.818 375 M
222.818 370.535 L
S
GR
GS
0.149 GC
2 setlinecap
1 LJ
0.5 LW
N
370.637 375 M
370.637 370.535 L
S
GR
GS
0.149 GC
2 setlinecap
1 LJ
0.5 LW
N
518.455 375 M
518.455 370.535 L
S
GR
GS
0.149 GC
2 setlinecap
1 LJ
0.5 LW
N
75 32.5 M
75 36.965 L
S
GR
GS
0.149 GC
2 setlinecap
1 LJ
0.5 LW
N
222.818 32.5 M
222.818 36.965 L
S
GR
GS
0.149 GC
2 setlinecap
1 LJ
0.5 LW
N
370.637 32.5 M
370.637 36.965 L
S
GR
GS
0.149 GC
2 setlinecap
1 LJ
0.5 LW
N
518.455 32.5 M
518.455 36.965 L
S
GR
GS
0.149 GC
2 setlinecap
1 LJ
0.5 LW
N
119.498 375 M
119.498 372.767 L
S
GR
GS
0.149 GC
2 setlinecap
1 LJ
0.5 LW
N
145.527 375 M
145.527 372.767 L
S
GR
GS
0.149 GC
2 setlinecap
1 LJ
0.5 LW
N
163.995 375 M
163.995 372.767 L
S
GR
GS
0.149 GC
2 setlinecap
1 LJ
0.5 LW
N
178.321 375 M
178.321 372.767 L
S
GR
GS
0.149 GC
2 setlinecap
1 LJ
0.5 LW
N
190.025 375 M
190.025 372.767 L
S
GR
GS
0.149 GC
2 setlinecap
1 LJ
0.5 LW
N
199.921 375 M
199.921 372.767 L
S
GR
GS
0.149 GC
2 setlinecap
1 LJ
0.5 LW
N
208.493 375 M
208.493 372.767 L
S
GR
GS
0.149 GC
2 setlinecap
1 LJ
0.5 LW
N
216.055 375 M
216.055 372.767 L
S
GR
GS
0.149 GC
2 setlinecap
1 LJ
0.5 LW
N
267.316 375 M
267.316 372.767 L
S
GR
GS
0.149 GC
2 setlinecap
1 LJ
0.5 LW
N
293.346 375 M
293.346 372.767 L
S
GR
GS
0.149 GC
2 setlinecap
1 LJ
0.5 LW
N
311.814 375 M
311.814 372.767 L
S
GR
GS
0.149 GC
2 setlinecap
1 LJ
0.5 LW
N
326.139 375 M
326.139 372.767 L
S
GR
GS
0.149 GC
2 setlinecap
1 LJ
0.5 LW
N
337.843 375 M
337.843 372.767 L
S
GR
GS
0.149 GC
2 setlinecap
1 LJ
0.5 LW
N
347.739 375 M
347.739 372.767 L
S
GR
GS
0.149 GC
2 setlinecap
1 LJ
0.5 LW
N
356.312 375 M
356.312 372.767 L
S
GR
GS
0.149 GC
2 setlinecap
1 LJ
0.5 LW
N
363.873 375 M
363.873 372.767 L
S
GR
GS
0.149 GC
2 setlinecap
1 LJ
0.5 LW
N
415.134 375 M
415.134 372.767 L
S
GR
GS
0.149 GC
2 setlinecap
1 LJ
0.5 LW
N
441.164 375 M
441.164 372.767 L
S
GR
GS
0.149 GC
2 setlinecap
1 LJ
0.5 LW
N
459.632 375 M
459.632 372.767 L
S
GR
GS
0.149 GC
2 setlinecap
1 LJ
0.5 LW
N
473.957 375 M
473.957 372.767 L
S
GR
GS
0.149 GC
2 setlinecap
1 LJ
0.5 LW
N
485.662 375 M
485.662 372.767 L
S
GR
GS
0.149 GC
2 setlinecap
1 LJ
0.5 LW
N
495.558 375 M
495.558 372.767 L
S
GR
GS
0.149 GC
2 setlinecap
1 LJ
0.5 LW
N
504.13 375 M
504.13 372.767 L
S
GR
GS
0.149 GC
2 setlinecap
1 LJ
0.5 LW
N
511.691 375 M
511.691 372.767 L
S
GR
GS
0.149 GC
2 setlinecap
1 LJ
0.5 LW
N
119.498 32.5 M
119.498 34.732 L
S
GR
GS
0.149 GC
2 setlinecap
1 LJ
0.5 LW
N
145.527 32.5 M
145.527 34.732 L
S
GR
GS
0.149 GC
2 setlinecap
1 LJ
0.5 LW
N
163.995 32.5 M
163.995 34.732 L
S
GR
GS
0.149 GC
2 setlinecap
1 LJ
0.5 LW
N
178.321 32.5 M
178.321 34.732 L
S
GR
GS
0.149 GC
2 setlinecap
1 LJ
0.5 LW
N
190.025 32.5 M
190.025 34.732 L
S
GR
GS
0.149 GC
2 setlinecap
1 LJ
0.5 LW
N
199.921 32.5 M
199.921 34.732 L
S
GR
GS
0.149 GC
2 setlinecap
1 LJ
0.5 LW
N
208.493 32.5 M
208.493 34.732 L
S
GR
GS
0.149 GC
2 setlinecap
1 LJ
0.5 LW
N
216.055 32.5 M
216.055 34.732 L
S
GR
GS
0.149 GC
2 setlinecap
1 LJ
0.5 LW
N
267.316 32.5 M
267.316 34.732 L
S
GR
GS
0.149 GC
2 setlinecap
1 LJ
0.5 LW
N
293.346 32.5 M
293.346 34.732 L
S
GR
GS
0.149 GC
2 setlinecap
1 LJ
0.5 LW
N
311.814 32.5 M
311.814 34.732 L
S
GR
GS
0.149 GC
2 setlinecap
1 LJ
0.5 LW
N
326.139 32.5 M
326.139 34.732 L
S
GR
GS
0.149 GC
2 setlinecap
1 LJ
0.5 LW
N
337.843 32.5 M
337.843 34.732 L
S
GR
GS
0.149 GC
2 setlinecap
1 LJ
0.5 LW
N
347.739 32.5 M
347.739 34.732 L
S
GR
GS
0.149 GC
2 setlinecap
1 LJ
0.5 LW
N
356.312 32.5 M
356.312 34.732 L
S
GR
GS
0.149 GC
2 setlinecap
1 LJ
0.5 LW
N
363.873 32.5 M
363.873 34.732 L
S
GR
GS
0.149 GC
2 setlinecap
1 LJ
0.5 LW
N
415.134 32.5 M
415.134 34.732 L
S
GR
GS
0.149 GC
2 setlinecap
1 LJ
0.5 LW
N
441.164 32.5 M
441.164 34.732 L
S
GR
GS
0.149 GC
2 setlinecap
1 LJ
0.5 LW
N
459.632 32.5 M
459.632 34.732 L
S
GR
GS
0.149 GC
2 setlinecap
1 LJ
0.5 LW
N
473.957 32.5 M
473.957 34.732 L
S
GR
GS
0.149 GC
2 setlinecap
1 LJ
0.5 LW
N
485.662 32.5 M
485.662 34.732 L
S
GR
GS
0.149 GC
2 setlinecap
1 LJ
0.5 LW
N
495.558 32.5 M
495.558 34.732 L
S
GR
GS
0.149 GC
2 setlinecap
1 LJ
0.5 LW
N
504.13 32.5 M
504.13 34.732 L
S
GR
GS
0.149 GC
2 setlinecap
1 LJ
0.5 LW
N
511.691 32.5 M
511.691 34.732 L
S
GR
GS
[1 0 0 1 59 404] CT
0.149 GC
/Helvetica 20 F
GS
[1 0 0 1 0 0] CT
0 0 moveto
1 -1 scale
(10) t
GR
GR
GS
[1 0 0 1 82 394] CT
0.149 GC
/Helvetica 16 F
GS
[1 0 0 1 0 0] CT
0 0 moveto
1 -1 scale
(3) t
GR
GR
GS
[1 0 0 1 207 404] CT
0.149 GC
/Helvetica 20 F
GS
[1 0 0 1 0 0] CT
0 0 moveto
1 -1 scale
(10) t
GR
GR
GS
[1 0 0 1 230 394] CT
0.149 GC
/Helvetica 16 F
GS
[1 0 0 1 0 0] CT
0 0 moveto
1 -1 scale
(4) t
GR
GR
GS
[1 0 0 1 355 404] CT
0.149 GC
/Helvetica 20 F
GS
[1 0 0 1 0 0] CT
0 0 moveto
1 -1 scale
(10) t
GR
GR
GS
[1 0 0 1 378 394] CT
0.149 GC
/Helvetica 16 F
GS
[1 0 0 1 0 0] CT
0 0 moveto
1 -1 scale
(5) t
GR
GR
GS
[1 0 0 1 502 404] CT
0.149 GC
/Helvetica 20 F
GS
[1 0 0 1 0 0] CT
0 0 moveto
1 -1 scale
(10) t
GR
GR
GS
[1 0 0 1 525 394] CT
0.149 GC
/Helvetica 16 F
GS
[1 0 0 1 0 0] CT
0 0 moveto
1 -1 scale
(6) t
GR
GR
GS
[1 0 0 1 298.25021 409.5] CT
/Helvetica 22 F
GS
[1 0 0 1 0 0] CT
-124 17 moveto
1 -1 scale
(Dimension of the signal) t
GR
GR
GS
0.149 GC
2 setlinecap
1 LJ
0.5 LW
N
75 375 M
75 32.5 L
S
GR
GS
0.149 GC
2 setlinecap
1 LJ
0.5 LW
N
521.5 375 M
521.5 32.5 L
S
GR
GS
0.149 GC
2 setlinecap
1 LJ
0.5 LW
N
75 375 M
79.465 375 L
S
GR
GS
0.149 GC
2 setlinecap
1 LJ
0.5 LW
N
75 326.071 M
79.465 326.071 L
S
GR
GS
0.149 GC
2 setlinecap
1 LJ
0.5 LW
N
75 277.143 M
79.465 277.143 L
S
GR
GS
0.149 GC
2 setlinecap
1 LJ
0.5 LW
N
75 228.214 M
79.465 228.214 L
S
GR
GS
0.149 GC
2 setlinecap
1 LJ
0.5 LW
N
75 179.286 M
79.465 179.286 L
S
GR
GS
0.149 GC
2 setlinecap
1 LJ
0.5 LW
N
75 130.357 M
79.465 130.357 L
S
GR
GS
0.149 GC
2 setlinecap
1 LJ
0.5 LW
N
75 81.429 M
79.465 81.429 L
S
GR
GS
0.149 GC
2 setlinecap
1 LJ
0.5 LW
N
75 32.5 M
79.465 32.5 L
S
GR
GS
0.149 GC
2 setlinecap
1 LJ
0.5 LW
N
521.5 375 M
517.035 375 L
S
GR
GS
0.149 GC
2 setlinecap
1 LJ
0.5 LW
N
521.5 326.071 M
517.035 326.071 L
S
GR
GS
0.149 GC
2 setlinecap
1 LJ
0.5 LW
N
521.5 277.143 M
517.035 277.143 L
S
GR
GS
0.149 GC
2 setlinecap
1 LJ
0.5 LW
N
521.5 228.214 M
517.035 228.214 L
S
GR
GS
0.149 GC
2 setlinecap
1 LJ
0.5 LW
N
521.5 179.286 M
517.035 179.286 L
S
GR
GS
0.149 GC
2 setlinecap
1 LJ
0.5 LW
N
521.5 130.357 M
517.035 130.357 L
S
GR
GS
0.149 GC
2 setlinecap
1 LJ
0.5 LW
N
521.5 81.429 M
517.035 81.429 L
S
GR
GS
0.149 GC
2 setlinecap
1 LJ
0.5 LW
N
521.5 32.5 M
517.035 32.5 L
S
GR
GS
[1 0 0 1 69 375] CT
0.149 GC
/Helvetica 20 F
GS
[1 0 0 1 0 0] CT
-12 5.5 moveto
1 -1 scale
(0) t
GR
GR
GS
[1 0 0 1 69 326.07141] CT
0.149 GC
/Helvetica 20 F
GS
[1 0 0 1 0 0] CT
-12 5.5 moveto
1 -1 scale
(2) t
GR
GR
GS
[1 0 0 1 69 277.14285] CT
0.149 GC
/Helvetica 20 F
GS
[1 0 0 1 0 0] CT
-12 5.5 moveto
1 -1 scale
(4) t
GR
GR
GS
[1 0 0 1 69 228.21428] CT
0.149 GC
/Helvetica 20 F
GS
[1 0 0 1 0 0] CT
-12 5.5 moveto
1 -1 scale
(6) t
GR
GR
GS
[1 0 0 1 69 179.28571] CT
0.149 GC
/Helvetica 20 F
GS
[1 0 0 1 0 0] CT
-12 5.5 moveto
1 -1 scale
(8) t
GR
GR
GS
[1 0 0 1 69 130.35713] CT
0.149 GC
/Helvetica 20 F
GS
[1 0 0 1 0 0] CT
-23 5.5 moveto
1 -1 scale
(10) t
GR
GR
GS
[1 0 0 1 69 81.42857] CT
0.149 GC
/Helvetica 20 F
GS
[1 0 0 1 0 0] CT
-23 5.5 moveto
1 -1 scale
(12) t
GR
GR
GS
[1 0 0 1 69 32.5] CT
0.149 GC
/Helvetica 20 F
GS
[1 0 0 1 0 0] CT
-23 5.5 moveto
1 -1 scale
(14) t
GR
GR
GS
[0 -1 1 0 43.5 203.74983] CT
/Helvetica 22 F
GS
[1 0 0 1 0 0] CT
-120 -6 moveto
1 -1 scale
(Running time \(seconds\)) t
GR
GR
GS
0 0 1 RC
1 LJ
2 LW
N
76.523 374.45 M
121.02 374.19 L
165.518 374.217 L
210.016 374.03 L
254.514 373.827 L
299.011 373.349 L
343.509 372.564 L
388.007 371.292 L
432.505 368.107 L
477.002 362.226 L
521.5 347.994 L
S
GR
GS
0 0 1 RC
1 LJ
2 LW
N
79.5 374.5 M
78.621 372.379 L
76.5 371.5 L
74.379 372.379 L
73.5 374.5 L
74.379 376.621 L
76.5 377.5 L
78.621 376.621 L
cp
S
GR
GS
0 0 1 RC
1 LJ
2 LW
N
124.5 374.5 M
123.621 372.379 L
121.5 371.5 L
119.379 372.379 L
118.5 374.5 L
119.379 376.621 L
121.5 377.5 L
123.621 376.621 L
cp
S
GR
GS
0 0 1 RC
1 LJ
2 LW
N
168.5 374.5 M
167.621 372.379 L
165.5 371.5 L
163.379 372.379 L
162.5 374.5 L
163.379 376.621 L
165.5 377.5 L
167.621 376.621 L
cp
S
GR
GS
0 0 1 RC
1 LJ
2 LW
N
213.5 374.5 M
212.621 372.379 L
210.5 371.5 L
208.379 372.379 L
207.5 374.5 L
208.379 376.621 L
210.5 377.5 L
212.621 376.621 L
cp
S
GR
GS
0 0 1 RC
1 LJ
2 LW
N
257.5 373.5 M
256.621 371.379 L
254.5 370.5 L
252.379 371.379 L
251.5 373.5 L
252.379 375.621 L
254.5 376.5 L
256.621 375.621 L
cp
S
GR
GS
0 0 1 RC
1 LJ
2 LW
N
302.5 373.5 M
301.621 371.379 L
299.5 370.5 L
297.379 371.379 L
296.5 373.5 L
297.379 375.621 L
299.5 376.5 L
301.621 375.621 L
cp
S
GR
GS
0 0 1 RC
1 LJ
2 LW
N
346.5 372.5 M
345.621 370.379 L
343.5 369.5 L
341.379 370.379 L
340.5 372.5 L
341.379 374.621 L
343.5 375.5 L
345.621 374.621 L
cp
S
GR
GS
0 0 1 RC
1 LJ
2 LW
N
391.5 371.5 M
390.621 369.379 L
388.5 368.5 L
386.379 369.379 L
385.5 371.5 L
386.379 373.621 L
388.5 374.5 L
390.621 373.621 L
cp
S
GR
GS
0 0 1 RC
1 LJ
2 LW
N
435.5 368.5 M
434.621 366.379 L
432.5 365.5 L
430.379 366.379 L
429.5 368.5 L
430.379 370.621 L
432.5 371.5 L
434.621 370.621 L
cp
S
GR
GS
0 0 1 RC
1 LJ
2 LW
N
480.5 362.5 M
479.621 360.379 L
477.5 359.5 L
475.379 360.379 L
474.5 362.5 L
475.379 364.621 L
477.5 365.5 L
479.621 364.621 L
cp
S
GR
GS
0 0 1 RC
1 LJ
2 LW
N
524.5 347.5 M
523.621 345.379 L
521.5 344.5 L
519.379 345.379 L
518.5 347.5 L
519.379 349.621 L
521.5 350.5 L
523.621 349.621 L
cp
S
GR
GS
1 0 0 RC
1 LJ
2 LW
N
76.523 366.989 M
121.02 363.727 L
165.518 364.873 L
210.016 362.425 L
254.514 361.887 L
299.011 356.89 L
343.509 350.87 L
388.007 338.73 L
432.505 313.36 L
477.002 236.033 L
521.5 71.379 L
S
GR
GS
1 0 0 RC
10.0 ML
2 LW
N
74.16 368.84 M
74.16 364.16 L
78.84 364.16 L
78.84 368.84 L
cp
S
GR
GS
1 0 0 RC
10.0 ML
2 LW
N
119.16 365.84 M
119.16 361.16 L
123.84 361.16 L
123.84 365.84 L
cp
S
GR
GS
1 0 0 RC
10.0 ML
2 LW
N
163.16 366.84 M
163.16 362.16 L
167.84 362.16 L
167.84 366.84 L
cp
S
GR
GS
1 0 0 RC
10.0 ML
2 LW
N
208.16 364.84 M
208.16 360.16 L
212.84 360.16 L
212.84 364.84 L
cp
S
GR
GS
1 0 0 RC
10.0 ML
2 LW
N
252.16 363.84 M
252.16 359.16 L
256.84 359.16 L
256.84 363.84 L
cp
S
GR
GS
1 0 0 RC
10.0 ML
2 LW
N
297.16 358.84 M
297.16 354.16 L
301.84 354.16 L
301.84 358.84 L
cp
S
GR
GS
1 0 0 RC
10.0 ML
2 LW
N
341.16 352.84 M
341.16 348.16 L
345.84 348.16 L
345.84 352.84 L
cp
S
GR
GS
1 0 0 RC
10.0 ML
2 LW
N
386.16 340.84 M
386.16 336.16 L
390.84 336.16 L
390.84 340.84 L
cp
S
GR
GS
1 0 0 RC
10.0 ML
2 LW
N
430.16 315.84 M
430.16 311.16 L
434.84 311.16 L
434.84 315.84 L
cp
S
GR
GS
1 0 0 RC
10.0 ML
2 LW
N
475.16 238.84 M
475.16 234.16 L
479.84 234.16 L
479.84 238.84 L
cp
S
GR
GS
1 0 0 RC
10.0 ML
2 LW
N
519.16 73.84 M
519.16 69.16 L
523.84 69.16 L
523.84 73.84 L
cp
S
GR
GS
1 GC
N
379 75 M
379 33 L
518.5 33 L
518.5 75 L
cp
f
GR
GS
[1 0 0 1 418 44.38554] CT
/Helvetica 18 F
GS
[1 0 0 1 0 0] CT
0 4.5 moveto
1 -1 scale
(OneShot) t
GR
GR
GS
0 0 1 RC
1 LJ
2 LW
N
385 44.386 M
415 44.386 L
S
GR
GS
0 0 1 RC
1 LJ
2 LW
N
403.5 44.5 M
402.621 42.379 L
400.5 41.5 L
398.379 42.379 L
397.5 44.5 L
398.379 46.621 L
400.5 47.5 L
402.621 46.621 L
cp
S
GR
GS
[1 0 0 1 418 63.61446] CT
/Helvetica 18 F
GS
[1 0 0 1 0 0] CT
0 4.5 moveto
1 -1 scale
(NLCDLasso) t
GR
GR
GS
1 0 0 RC
1 LJ
2 LW
N
385 63.614 M
415 63.614 L
S
GR
GS
1 0 0 RC
10.0 ML
2 LW
N
398.16 65.84 M
398.16 61.16 L
402.84 61.16 L
402.84 65.84 L
cp
S
GR
GS
10.0 ML
0.5 LW
N
379 75 M
379 33 L
518.5 33 L
518.5 75 L
cp
S
GR
%%Trailer
%%Pages: 1
%%EOF
