%!PS-Adobe-3.0 EPSF-3.0
%%Creator: (MATLAB, The Mathworks, Inc. Version 8.6.0.267246 \(R2015b\). Operating System: Mac OS X)
%%Title: ./4algProbSigmoid.eps
%%CreationDate: 2016-08-01T11:34:29
%%Pages: (atend)
%%BoundingBox:    15     0   540   410
%%LanguageLevel: 3
%%EndComments
%%BeginProlog
%%BeginResource: procset (Apache XML Graphics Std ProcSet) 1.2 0
%%Version: 1.2 0
%%Copyright: (Copyright 2001-2003,2010 The Apache Software Foundation. License terms: http://www.apache.org/licenses/LICENSE-2.0)
/bd{bind def}bind def
/ld{load def}bd
/GR/grestore ld
/M/moveto ld
/LJ/setlinejoin ld
/C/curveto ld
/f/fill ld
/LW/setlinewidth ld
/GC/setgray ld
/t/show ld
/N/newpath ld
/CT/concat ld
/cp/closepath ld
/S/stroke ld
/L/lineto ld
/CC/setcmykcolor ld
/A/ashow ld
/GS/gsave ld
/RC/setrgbcolor ld
/RM/rmoveto ld
/ML/setmiterlimit ld
/re {4 2 roll M
1 index 0 rlineto
0 exch rlineto
neg 0 rlineto
cp } bd
/_ctm matrix def
/_tm matrix def
/BT { _ctm currentmatrix pop matrix _tm copy pop 0 0 moveto } bd
/ET { _ctm setmatrix } bd
/iTm { _ctm setmatrix _tm concat } bd
/Tm { _tm astore pop iTm 0 0 moveto } bd
/ux 0.0 def
/uy 0.0 def
/F {
  /Tp exch def
  /Tf exch def
  Tf findfont Tp scalefont setfont
  /cf Tf def  /cs Tp def
} bd
/ULS {currentpoint /uy exch def /ux exch def} bd
/ULE {
  /Tcx currentpoint pop def
  gsave
  newpath
  cf findfont cs scalefont dup
  /FontMatrix get 0 get /Ts exch def /FontInfo get dup
  /UnderlinePosition get Ts mul /To exch def
  /UnderlineThickness get Ts mul /Tt exch def
  ux uy To add moveto  Tcx uy To add lineto
  Tt setlinewidth stroke
  grestore
} bd
/OLE {
  /Tcx currentpoint pop def
  gsave
  newpath
  cf findfont cs scalefont dup
  /FontMatrix get 0 get /Ts exch def /FontInfo get dup
  /UnderlinePosition get Ts mul /To exch def
  /UnderlineThickness get Ts mul /Tt exch def
  ux uy To add cs add moveto Tcx uy To add cs add lineto
  Tt setlinewidth stroke
  grestore
} bd
/SOE {
  /Tcx currentpoint pop def
  gsave
  newpath
  cf findfont cs scalefont dup
  /FontMatrix get 0 get /Ts exch def /FontInfo get dup
  /UnderlinePosition get Ts mul /To exch def
  /UnderlineThickness get Ts mul /Tt exch def
  ux uy To add cs 10 mul 26 idiv add moveto Tcx uy To add cs 10 mul 26 idiv add lineto
  Tt setlinewidth stroke
  grestore
} bd
/QT {
/Y22 exch store
/X22 exch store
/Y21 exch store
/X21 exch store
currentpoint
/Y21 load 2 mul add 3 div exch
/X21 load 2 mul add 3 div exch
/X21 load 2 mul /X22 load add 3 div
/Y21 load 2 mul /Y22 load add 3 div
/X22 load /Y22 load curveto
} bd
/SSPD {
dup length /d exch dict def
{
/v exch def
/k exch def
currentpagedevice k known {
/cpdv currentpagedevice k get def
v cpdv ne {
/upd false def
/nullv v type /nulltype eq def
/nullcpdv cpdv type /nulltype eq def
nullv nullcpdv or
{
/upd true def
} {
/sametype v type cpdv type eq def
sametype {
v type /arraytype eq {
/vlen v length def
/cpdvlen cpdv length def
vlen cpdvlen eq {
0 1 vlen 1 sub {
/i exch def
/obj v i get def
/cpdobj cpdv i get def
obj cpdobj ne {
/upd true def
exit
} if
} for
} {
/upd true def
} ifelse
} {
v type /dicttype eq {
v {
/dv exch def
/dk exch def
/cpddv cpdv dk get def
dv cpddv ne {
/upd true def
exit
} if
} forall
} {
/upd true def
} ifelse
} ifelse
} if
} ifelse
upd true eq {
d k v put
} if
} if
} if
} forall
d length 0 gt {
d setpagedevice
} if
} bd
%%EndResource
%%BeginResource: procset (Apache XML Graphics EPS ProcSet) 1.0 0
%%Version: 1.0 0
%%Copyright: (Copyright 2002-2003 The Apache Software Foundation. License terms: http://www.apache.org/licenses/LICENSE-2.0)
/BeginEPSF { %def
/b4_Inc_state save def         % Save state for cleanup
/dict_count countdictstack def % Count objects on dict stack
/op_count count 1 sub def      % Count objects on operand stack
userdict begin                 % Push userdict on dict stack
/showpage { } def              % Redefine showpage, { } = null proc
0 setgray 0 setlinecap         % Prepare graphics state
1 setlinewidth 0 setlinejoin
10 setmiterlimit [ ] 0 setdash newpath
/languagelevel where           % If level not equal to 1 then
{pop languagelevel             % set strokeadjust and
1 ne                           % overprint to their defaults.
{false setstrokeadjust false setoverprint
} if
} if
} bd
/EndEPSF { %def
count op_count sub {pop} repeat            % Clean up stacks
countdictstack dict_count sub {end} repeat
b4_Inc_state restore
} bd
%%EndResource
%FOPBeginFontDict
%%IncludeResource: font Courier-Bold
%%IncludeResource: font Helvetica
%%IncludeResource: font Courier-BoldOblique
%%IncludeResource: font Courier-Oblique
%%IncludeResource: font Times-Roman
%%IncludeResource: font Helvetica-BoldOblique
%%IncludeResource: font Helvetica-Bold
%%IncludeResource: font Helvetica-Oblique
%%IncludeResource: font Times-BoldItalic
%%IncludeResource: font Courier
%%IncludeResource: font Times-Italic
%%IncludeResource: font Times-Bold
%%IncludeResource: font Symbol
%%IncludeResource: font ZapfDingbats
%FOPEndFontDict
%%BeginResource: encoding WinAnsiEncoding
/WinAnsiEncoding [
/.notdef /.notdef /.notdef /.notdef /.notdef
/.notdef /.notdef /.notdef /.notdef /.notdef
/.notdef /.notdef /.notdef /.notdef /.notdef
/.notdef /.notdef /.notdef /.notdef /.notdef
/.notdef /.notdef /.notdef /.notdef /.notdef
/.notdef /.notdef /.notdef /.notdef /.notdef
/.notdef /.notdef /space /exclam /quotedbl
/numbersign /dollar /percent /ampersand /quotesingle
/parenleft /parenright /asterisk /plus /comma
/hyphen /period /slash /zero /one
/two /three /four /five /six
/seven /eight /nine /colon /semicolon
/less /equal /greater /question /at
/A /B /C /D /E
/F /G /H /I /J
/K /L /M /N /O
/P /Q /R /S /T
/U /V /W /X /Y
/Z /bracketleft /backslash /bracketright /asciicircum
/underscore /quoteleft /a /b /c
/d /e /f /g /h
/i /j /k /l /m
/n /o /p /q /r
/s /t /u /v /w
/x /y /z /braceleft /bar
/braceright /asciitilde /bullet /Euro /bullet
/quotesinglbase /florin /quotedblbase /ellipsis /dagger
/daggerdbl /circumflex /perthousand /Scaron /guilsinglleft
/OE /bullet /Zcaron /bullet /bullet
/quoteleft /quoteright /quotedblleft /quotedblright /bullet
/endash /emdash /asciitilde /trademark /scaron
/guilsinglright /oe /bullet /zcaron /Ydieresis
/space /exclamdown /cent /sterling /currency
/yen /brokenbar /section /dieresis /copyright
/ordfeminine /guillemotleft /logicalnot /sfthyphen /registered
/macron /degree /plusminus /twosuperior /threesuperior
/acute /mu /paragraph /middot /cedilla
/onesuperior /ordmasculine /guillemotright /onequarter /onehalf
/threequarters /questiondown /Agrave /Aacute /Acircumflex
/Atilde /Adieresis /Aring /AE /Ccedilla
/Egrave /Eacute /Ecircumflex /Edieresis /Igrave
/Iacute /Icircumflex /Idieresis /Eth /Ntilde
/Ograve /Oacute /Ocircumflex /Otilde /Odieresis
/multiply /Oslash /Ugrave /Uacute /Ucircumflex
/Udieresis /Yacute /Thorn /germandbls /agrave
/aacute /acircumflex /atilde /adieresis /aring
/ae /ccedilla /egrave /eacute /ecircumflex
/edieresis /igrave /iacute /icircumflex /idieresis
/eth /ntilde /ograve /oacute /ocircumflex
/otilde /odieresis /divide /oslash /ugrave
/uacute /ucircumflex /udieresis /yacute /thorn
/ydieresis
] def
%%EndResource
%FOPBeginFontReencode
/Courier-Bold findfont
dup length dict begin
  {1 index /FID ne {def} {pop pop} ifelse} forall
  /Encoding WinAnsiEncoding def
  currentdict
end
/Courier-Bold exch definefont pop
/Helvetica findfont
dup length dict begin
  {1 index /FID ne {def} {pop pop} ifelse} forall
  /Encoding WinAnsiEncoding def
  currentdict
end
/Helvetica exch definefont pop
/Courier-BoldOblique findfont
dup length dict begin
  {1 index /FID ne {def} {pop pop} ifelse} forall
  /Encoding WinAnsiEncoding def
  currentdict
end
/Courier-BoldOblique exch definefont pop
/Courier-Oblique findfont
dup length dict begin
  {1 index /FID ne {def} {pop pop} ifelse} forall
  /Encoding WinAnsiEncoding def
  currentdict
end
/Courier-Oblique exch definefont pop
/Times-Roman findfont
dup length dict begin
  {1 index /FID ne {def} {pop pop} ifelse} forall
  /Encoding WinAnsiEncoding def
  currentdict
end
/Times-Roman exch definefont pop
/Helvetica-BoldOblique findfont
dup length dict begin
  {1 index /FID ne {def} {pop pop} ifelse} forall
  /Encoding WinAnsiEncoding def
  currentdict
end
/Helvetica-BoldOblique exch definefont pop
/Helvetica-Bold findfont
dup length dict begin
  {1 index /FID ne {def} {pop pop} ifelse} forall
  /Encoding WinAnsiEncoding def
  currentdict
end
/Helvetica-Bold exch definefont pop
/Helvetica-Oblique findfont
dup length dict begin
  {1 index /FID ne {def} {pop pop} ifelse} forall
  /Encoding WinAnsiEncoding def
  currentdict
end
/Helvetica-Oblique exch definefont pop
/Times-BoldItalic findfont
dup length dict begin
  {1 index /FID ne {def} {pop pop} ifelse} forall
  /Encoding WinAnsiEncoding def
  currentdict
end
/Times-BoldItalic exch definefont pop
/Courier findfont
dup length dict begin
  {1 index /FID ne {def} {pop pop} ifelse} forall
  /Encoding WinAnsiEncoding def
  currentdict
end
/Courier exch definefont pop
/Times-Italic findfont
dup length dict begin
  {1 index /FID ne {def} {pop pop} ifelse} forall
  /Encoding WinAnsiEncoding def
  currentdict
end
/Times-Italic exch definefont pop
/Times-Bold findfont
dup length dict begin
  {1 index /FID ne {def} {pop pop} ifelse} forall
  /Encoding WinAnsiEncoding def
  currentdict
end
/Times-Bold exch definefont pop
%FOPEndFontReencode
%%EndProlog
%%Page: 1 1
%%PageBoundingBox: 0 0 576 432
%%BeginPageSetup
[1 0 0 -1 0 432] CT
%%EndPageSetup
GS
1 GC
N
0 0 576 432 re
f
GR
GS
1 GC
N
0 0 576 432 re
f
GR
GS
1 GC
N
75 382 M
521.5 382 L
521.5 32.5 L
75 32.5 L
cp
f
GR
GS
0.873 GC
1 LJ
0.5 LW
N
159.835 382 M
159.835 32.5 L
S
GR
GS
0.873 GC
1 LJ
0.5 LW
N
249.135 382 M
249.135 32.5 L
S
GR
GS
0.873 GC
1 LJ
0.5 LW
N
338.435 382 M
338.435 32.5 L
S
GR
GS
0.873 GC
1 LJ
0.5 LW
N
427.735 382 M
427.735 32.5 L
S
GR
GS
0.873 GC
1 LJ
0.5 LW
N
517.035 382 M
517.035 32.5 L
S
GR
GS
0.873 GC
1 LJ
0.5 LW
N
521.5 382 M
75 382 L
S
GR
GS
0.873 GC
1 LJ
0.5 LW
N
521.5 312.1 M
75 312.1 L
S
GR
GS
0.873 GC
1 LJ
0.5 LW
N
521.5 242.2 M
75 242.2 L
S
GR
GS
0.873 GC
1 LJ
0.5 LW
N
521.5 172.3 M
75 172.3 L
S
GR
GS
0.873 GC
1 LJ
0.5 LW
N
521.5 102.4 M
75 102.4 L
S
GR
GS
0.873 GC
1 LJ
0.5 LW
N
521.5 32.5 M
75 32.5 L
S
GR
GS
0.149 GC
2 setlinecap
1 LJ
0.5 LW
N
75 382 M
521.5 382 L
S
GR
GS
0.149 GC
2 setlinecap
1 LJ
0.5 LW
N
75 32.5 M
521.5 32.5 L
S
GR
GS
0.149 GC
2 setlinecap
1 LJ
0.5 LW
N
159.835 382 M
159.835 377.535 L
S
GR
GS
0.149 GC
2 setlinecap
1 LJ
0.5 LW
N
249.135 382 M
249.135 377.535 L
S
GR
GS
0.149 GC
2 setlinecap
1 LJ
0.5 LW
N
338.435 382 M
338.435 377.535 L
S
GR
GS
0.149 GC
2 setlinecap
1 LJ
0.5 LW
N
427.735 382 M
427.735 377.535 L
S
GR
GS
0.149 GC
2 setlinecap
1 LJ
0.5 LW
N
517.035 382 M
517.035 377.535 L
S
GR
GS
0.149 GC
2 setlinecap
1 LJ
0.5 LW
N
159.835 32.5 M
159.835 36.965 L
S
GR
GS
0.149 GC
2 setlinecap
1 LJ
0.5 LW
N
249.135 32.5 M
249.135 36.965 L
S
GR
GS
0.149 GC
2 setlinecap
1 LJ
0.5 LW
N
338.435 32.5 M
338.435 36.965 L
S
GR
GS
0.149 GC
2 setlinecap
1 LJ
0.5 LW
N
427.735 32.5 M
427.735 36.965 L
S
GR
GS
0.149 GC
2 setlinecap
1 LJ
0.5 LW
N
517.035 32.5 M
517.035 36.965 L
S
GR
GS
[1 0 0 1 159.83501 388] CT
0.149 GC
/Helvetica 20 F
GS
[1 0 0 1 0 0] CT
-22.5 16 moveto 
1 -1 scale
(1000) t 
GR
GR
GS
[1 0 0 1 249.13499 388] CT
0.149 GC
/Helvetica 20 F
GS
[1 0 0 1 0 0] CT
-22.5 16 moveto 
1 -1 scale
(2000) t 
GR
GR
GS
[1 0 0 1 338.435 388] CT
0.149 GC
/Helvetica 20 F
GS
[1 0 0 1 0 0] CT
-22.5 16 moveto 
1 -1 scale
(3000) t 
GR
GR
GS
[1 0 0 1 427.73499 388] CT
0.149 GC
/Helvetica 20 F
GS
[1 0 0 1 0 0] CT
-22.5 16 moveto 
1 -1 scale
(4000) t 
GR
GR
GS
[1 0 0 1 517.03497 388] CT
0.149 GC
/Helvetica 20 F
GS
[1 0 0 1 0 0] CT
-22.5 16 moveto 
1 -1 scale
(5000) t 
GR
GR
GS
[1 0 0 1 298.25021 409.5] CT
0.149 GC
/Helvetica 22 F
GS
[1 0 0 1 0 0] CT
-127.5 17 moveto 
1 -1 scale
(Number of measurements) t 
GR
GR
GS
0.149 GC
2 setlinecap
1 LJ
0.5 LW
N
75 382 M
75 32.5 L
S
GR
GS
0.149 GC
2 setlinecap
1 LJ
0.5 LW
N
521.5 382 M
521.5 32.5 L
S
GR
GS
0.149 GC
2 setlinecap
1 LJ
0.5 LW
N
75 382 M
79.465 382 L
S
GR
GS
0.149 GC
2 setlinecap
1 LJ
0.5 LW
N
75 312.1 M
79.465 312.1 L
S
GR
GS
0.149 GC
2 setlinecap
1 LJ
0.5 LW
N
75 242.2 M
79.465 242.2 L
S
GR
GS
0.149 GC
2 setlinecap
1 LJ
0.5 LW
N
75 172.3 M
79.465 172.3 L
S
GR
GS
0.149 GC
2 setlinecap
1 LJ
0.5 LW
N
75 102.4 M
79.465 102.4 L
S
GR
GS
0.149 GC
2 setlinecap
1 LJ
0.5 LW
N
75 32.5 M
79.465 32.5 L
S
GR
GS
0.149 GC
2 setlinecap
1 LJ
0.5 LW
N
521.5 382 M
517.035 382 L
S
GR
GS
0.149 GC
2 setlinecap
1 LJ
0.5 LW
N
521.5 312.1 M
517.035 312.1 L
S
GR
GS
0.149 GC
2 setlinecap
1 LJ
0.5 LW
N
521.5 242.2 M
517.035 242.2 L
S
GR
GS
0.149 GC
2 setlinecap
1 LJ
0.5 LW
N
521.5 172.3 M
517.035 172.3 L
S
GR
GS
0.149 GC
2 setlinecap
1 LJ
0.5 LW
N
521.5 102.4 M
517.035 102.4 L
S
GR
GS
0.149 GC
2 setlinecap
1 LJ
0.5 LW
N
521.5 32.5 M
517.035 32.5 L
S
GR
GS
[1 0 0 1 69 382] CT
0.149 GC
/Helvetica 20 F
GS
[1 0 0 1 0 0] CT
-12 5.5 moveto 
1 -1 scale
(0) t 
GR
GR
GS
[1 0 0 1 69 312.10001] CT
0.149 GC
/Helvetica 20 F
GS
[1 0 0 1 0 0] CT
-28 5.5 moveto 
1 -1 scale
(0.2) t 
GR
GR
GS
[1 0 0 1 69 242.2] CT
0.149 GC
/Helvetica 20 F
GS
[1 0 0 1 0 0] CT
-28 5.5 moveto 
1 -1 scale
(0.4) t 
GR
GR
GS
[1 0 0 1 69 172.29999] CT
0.149 GC
/Helvetica 20 F
GS
[1 0 0 1 0 0] CT
-28 5.5 moveto 
1 -1 scale
(0.6) t 
GR
GR
GS
[1 0 0 1 69 102.39999] CT
0.149 GC
/Helvetica 20 F
GS
[1 0 0 1 0 0] CT
-28 5.5 moveto 
1 -1 scale
(0.8) t 
GR
GR
GS
[1 0 0 1 69 32.5] CT
0.149 GC
/Helvetica 20 F
GS
[1 0 0 1 0 0] CT
-12 5.5 moveto 
1 -1 scale
(1) t 
GR
GR
GS
[0 -1 1 0 38 207.24983] CT
0.149 GC
/Helvetica 22 F
GS
[1 0 0 1 0 0] CT
-109 -6 moveto 
1 -1 scale
(Probability of recovery) t 
GR
GR
GS
0 0 1 RC
1 LJ
2 LW
N
75 382 M
97.325 382 L
119.65 382 L
141.975 382 L
164.3 382 L
186.625 382 L
208.95 382 L
231.275 382 L
253.6 382 L
275.925 382 L
298.25 382 L
320.575 259.675 L
342.9 172.3 L
365.225 84.925 L
387.55 32.5 L
409.875 32.5 L
432.2 32.5 L
454.525 32.5 L
476.85 32.5 L
499.175 32.5 L
521.5 32.5 L
S
GR
GS
0 0 1 RC
1 LJ
2 LW
N
78.5 381.5 M
77.621 379.379 L
75.5 378.5 L
73.379 379.379 L
72.5 381.5 L
73.379 383.621 L
75.5 384.5 L
77.621 383.621 L
cp
S
GR
GS
0 0 1 RC
1 LJ
2 LW
N
100.5 381.5 M
99.621 379.379 L
97.5 378.5 L
95.379 379.379 L
94.5 381.5 L
95.379 383.621 L
97.5 384.5 L
99.621 383.621 L
cp
S
GR
GS
0 0 1 RC
1 LJ
2 LW
N
122.5 381.5 M
121.621 379.379 L
119.5 378.5 L
117.379 379.379 L
116.5 381.5 L
117.379 383.621 L
119.5 384.5 L
121.621 383.621 L
cp
S
GR
GS
0 0 1 RC
1 LJ
2 LW
N
144.5 381.5 M
143.621 379.379 L
141.5 378.5 L
139.379 379.379 L
138.5 381.5 L
139.379 383.621 L
141.5 384.5 L
143.621 383.621 L
cp
S
GR
GS
0 0 1 RC
1 LJ
2 LW
N
167.5 381.5 M
166.621 379.379 L
164.5 378.5 L
162.379 379.379 L
161.5 381.5 L
162.379 383.621 L
164.5 384.5 L
166.621 383.621 L
cp
S
GR
GS
0 0 1 RC
1 LJ
2 LW
N
189.5 381.5 M
188.621 379.379 L
186.5 378.5 L
184.379 379.379 L
183.5 381.5 L
184.379 383.621 L
186.5 384.5 L
188.621 383.621 L
cp
S
GR
GS
0 0 1 RC
1 LJ
2 LW
N
211.5 381.5 M
210.621 379.379 L
208.5 378.5 L
206.379 379.379 L
205.5 381.5 L
206.379 383.621 L
208.5 384.5 L
210.621 383.621 L
cp
S
GR
GS
0 0 1 RC
1 LJ
2 LW
N
234.5 381.5 M
233.621 379.379 L
231.5 378.5 L
229.379 379.379 L
228.5 381.5 L
229.379 383.621 L
231.5 384.5 L
233.621 383.621 L
cp
S
GR
GS
0 0 1 RC
1 LJ
2 LW
N
256.5 381.5 M
255.621 379.379 L
253.5 378.5 L
251.379 379.379 L
250.5 381.5 L
251.379 383.621 L
253.5 384.5 L
255.621 383.621 L
cp
S
GR
GS
0 0 1 RC
1 LJ
2 LW
N
278.5 381.5 M
277.621 379.379 L
275.5 378.5 L
273.379 379.379 L
272.5 381.5 L
273.379 383.621 L
275.5 384.5 L
277.621 383.621 L
cp
S
GR
GS
0 0 1 RC
1 LJ
2 LW
N
301.5 381.5 M
300.621 379.379 L
298.5 378.5 L
296.379 379.379 L
295.5 381.5 L
296.379 383.621 L
298.5 384.5 L
300.621 383.621 L
cp
S
GR
GS
0 0 1 RC
1 LJ
2 LW
N
323.5 259.5 M
322.621 257.379 L
320.5 256.5 L
318.379 257.379 L
317.5 259.5 L
318.379 261.621 L
320.5 262.5 L
322.621 261.621 L
cp
S
GR
GS
0 0 1 RC
1 LJ
2 LW
N
345.5 172.5 M
344.621 170.379 L
342.5 169.5 L
340.379 170.379 L
339.5 172.5 L
340.379 174.621 L
342.5 175.5 L
344.621 174.621 L
cp
S
GR
GS
0 0 1 RC
1 LJ
2 LW
N
368.5 84.5 M
367.621 82.379 L
365.5 81.5 L
363.379 82.379 L
362.5 84.5 L
363.379 86.621 L
365.5 87.5 L
367.621 86.621 L
cp
S
GR
GS
0 0 1 RC
1 LJ
2 LW
N
390.5 32.5 M
389.621 30.379 L
387.5 29.5 L
385.379 30.379 L
384.5 32.5 L
385.379 34.621 L
387.5 35.5 L
389.621 34.621 L
cp
S
GR
GS
0 0 1 RC
1 LJ
2 LW
N
412.5 32.5 M
411.621 30.379 L
409.5 29.5 L
407.379 30.379 L
406.5 32.5 L
407.379 34.621 L
409.5 35.5 L
411.621 34.621 L
cp
S
GR
GS
0 0 1 RC
1 LJ
2 LW
N
435.5 32.5 M
434.621 30.379 L
432.5 29.5 L
430.379 30.379 L
429.5 32.5 L
430.379 34.621 L
432.5 35.5 L
434.621 34.621 L
cp
S
GR
GS
0 0 1 RC
1 LJ
2 LW
N
457.5 32.5 M
456.621 30.379 L
454.5 29.5 L
452.379 30.379 L
451.5 32.5 L
452.379 34.621 L
454.5 35.5 L
456.621 34.621 L
cp
S
GR
GS
0 0 1 RC
1 LJ
2 LW
N
479.5 32.5 M
478.621 30.379 L
476.5 29.5 L
474.379 30.379 L
473.5 32.5 L
474.379 34.621 L
476.5 35.5 L
478.621 34.621 L
cp
S
GR
GS
0 0 1 RC
1 LJ
2 LW
N
502.5 32.5 M
501.621 30.379 L
499.5 29.5 L
497.379 30.379 L
496.5 32.5 L
497.379 34.621 L
499.5 35.5 L
501.621 34.621 L
cp
S
GR
GS
0 0 1 RC
1 LJ
2 LW
N
524.5 32.5 M
523.621 30.379 L
521.5 29.5 L
519.379 30.379 L
518.5 32.5 L
519.379 34.621 L
521.5 35.5 L
523.621 34.621 L
cp
S
GR
GS
1 0 0 RC
1 LJ
2 LW
N
75 382 M
97.325 382 L
119.65 382 L
141.975 382 L
164.3 382 L
186.625 382 L
208.95 382 L
231.275 382 L
253.6 382 L
275.925 382 L
298.25 382 L
320.575 382 L
342.9 382 L
365.225 382 L
387.55 382 L
409.875 312.1 L
432.2 67.45 L
454.525 32.5 L
476.85 32.5 L
499.175 32.5 L
521.5 32.5 L
S
GR
GS
1 0 0 RC
10.0 ML
2 LW
N
73.16 383.84 M
73.16 379.16 L
77.84 379.16 L
77.84 383.84 L
cp
S
GR
GS
1 0 0 RC
10.0 ML
2 LW
N
95.16 383.84 M
95.16 379.16 L
99.84 379.16 L
99.84 383.84 L
cp
S
GR
GS
1 0 0 RC
10.0 ML
2 LW
N
117.16 383.84 M
117.16 379.16 L
121.84 379.16 L
121.84 383.84 L
cp
S
GR
GS
1 0 0 RC
10.0 ML
2 LW
N
139.16 383.84 M
139.16 379.16 L
143.84 379.16 L
143.84 383.84 L
cp
S
GR
GS
1 0 0 RC
10.0 ML
2 LW
N
162.16 383.84 M
162.16 379.16 L
166.84 379.16 L
166.84 383.84 L
cp
S
GR
GS
1 0 0 RC
10.0 ML
2 LW
N
184.16 383.84 M
184.16 379.16 L
188.84 379.16 L
188.84 383.84 L
cp
S
GR
GS
1 0 0 RC
10.0 ML
2 LW
N
206.16 383.84 M
206.16 379.16 L
210.84 379.16 L
210.84 383.84 L
cp
S
GR
GS
1 0 0 RC
10.0 ML
2 LW
N
229.16 383.84 M
229.16 379.16 L
233.84 379.16 L
233.84 383.84 L
cp
S
GR
GS
1 0 0 RC
10.0 ML
2 LW
N
251.16 383.84 M
251.16 379.16 L
255.84 379.16 L
255.84 383.84 L
cp
S
GR
GS
1 0 0 RC
10.0 ML
2 LW
N
273.16 383.84 M
273.16 379.16 L
277.84 379.16 L
277.84 383.84 L
cp
S
GR
GS
1 0 0 RC
10.0 ML
2 LW
N
296.16 383.84 M
296.16 379.16 L
300.84 379.16 L
300.84 383.84 L
cp
S
GR
GS
1 0 0 RC
10.0 ML
2 LW
N
318.16 383.84 M
318.16 379.16 L
322.84 379.16 L
322.84 383.84 L
cp
S
GR
GS
1 0 0 RC
10.0 ML
2 LW
N
340.16 383.84 M
340.16 379.16 L
344.84 379.16 L
344.84 383.84 L
cp
S
GR
GS
1 0 0 RC
10.0 ML
2 LW
N
363.16 383.84 M
363.16 379.16 L
367.84 379.16 L
367.84 383.84 L
cp
S
GR
GS
1 0 0 RC
10.0 ML
2 LW
N
385.16 383.84 M
385.16 379.16 L
389.84 379.16 L
389.84 383.84 L
cp
S
GR
GS
1 0 0 RC
10.0 ML
2 LW
N
407.16 314.84 M
407.16 310.16 L
411.84 310.16 L
411.84 314.84 L
cp
S
GR
GS
1 0 0 RC
10.0 ML
2 LW
N
430.16 69.84 M
430.16 65.16 L
434.84 65.16 L
434.84 69.84 L
cp
S
GR
GS
1 0 0 RC
10.0 ML
2 LW
N
452.16 34.84 M
452.16 30.16 L
456.84 30.16 L
456.84 34.84 L
cp
S
GR
GS
1 0 0 RC
10.0 ML
2 LW
N
474.16 34.84 M
474.16 30.16 L
478.84 30.16 L
478.84 34.84 L
cp
S
GR
GS
1 0 0 RC
10.0 ML
2 LW
N
497.16 34.84 M
497.16 30.16 L
501.84 30.16 L
501.84 34.84 L
cp
S
GR
GS
1 0 0 RC
10.0 ML
2 LW
N
519.16 34.84 M
519.16 30.16 L
523.84 30.16 L
523.84 34.84 L
cp
S
GR
GS
0 1 0 RC
1 LJ
2 LW
N
75 382 M
97.325 382 L
119.65 382 L
141.975 382 L
164.3 382 L
186.625 382 L
208.95 382 L
231.275 382 L
253.6 382 L
275.925 382 L
298.25 382 L
320.575 382 L
342.9 382 L
365.225 382 L
387.55 382 L
409.875 382 L
432.2 382 L
454.525 382 L
476.85 382 L
499.175 382 L
521.5 382 L
S
GR
GS
0 1 0 RC
10.0 ML
2 LW
N
72.037 383.5 M
78.963 383.5 L
75.5 377.501 L
cp
S
GR
GS
0 1 0 RC
10.0 ML
2 LW
N
94.037 383.5 M
100.963 383.5 L
97.5 377.501 L
cp
S
GR
GS
0 1 0 RC
10.0 ML
2 LW
N
116.037 383.5 M
122.963 383.5 L
119.5 377.501 L
cp
S
GR
GS
0 1 0 RC
10.0 ML
2 LW
N
138.037 383.5 M
144.963 383.5 L
141.5 377.501 L
cp
S
GR
GS
0 1 0 RC
10.0 ML
2 LW
N
161.037 383.5 M
167.963 383.5 L
164.5 377.501 L
cp
S
GR
GS
0 1 0 RC
10.0 ML
2 LW
N
183.037 383.5 M
189.963 383.5 L
186.5 377.501 L
cp
S
GR
GS
0 1 0 RC
10.0 ML
2 LW
N
205.037 383.5 M
211.963 383.5 L
208.5 377.501 L
cp
S
GR
GS
0 1 0 RC
10.0 ML
2 LW
N
228.037 383.5 M
234.963 383.5 L
231.5 377.501 L
cp
S
GR
GS
0 1 0 RC
10.0 ML
2 LW
N
250.037 383.5 M
256.963 383.5 L
253.5 377.501 L
cp
S
GR
GS
0 1 0 RC
10.0 ML
2 LW
N
272.037 383.5 M
278.963 383.5 L
275.5 377.501 L
cp
S
GR
GS
0 1 0 RC
10.0 ML
2 LW
N
295.037 383.5 M
301.963 383.5 L
298.5 377.501 L
cp
S
GR
GS
0 1 0 RC
10.0 ML
2 LW
N
317.037 383.5 M
323.963 383.5 L
320.5 377.501 L
cp
S
GR
GS
0 1 0 RC
10.0 ML
2 LW
N
339.037 383.5 M
345.963 383.5 L
342.5 377.501 L
cp
S
GR
GS
0 1 0 RC
10.0 ML
2 LW
N
362.037 383.5 M
368.963 383.5 L
365.5 377.501 L
cp
S
GR
GS
0 1 0 RC
10.0 ML
2 LW
N
384.037 383.5 M
390.963 383.5 L
387.5 377.501 L
cp
S
GR
GS
0 1 0 RC
10.0 ML
2 LW
N
406.037 383.5 M
412.963 383.5 L
409.5 377.501 L
cp
S
GR
GS
0 1 0 RC
10.0 ML
2 LW
N
429.037 383.5 M
435.963 383.5 L
432.5 377.501 L
cp
S
GR
GS
0 1 0 RC
10.0 ML
2 LW
N
451.037 383.5 M
457.963 383.5 L
454.5 377.501 L
cp
S
GR
GS
0 1 0 RC
10.0 ML
2 LW
N
473.037 383.5 M
479.963 383.5 L
476.5 377.501 L
cp
S
GR
GS
0 1 0 RC
10.0 ML
2 LW
N
496.037 383.5 M
502.963 383.5 L
499.5 377.501 L
cp
S
GR
GS
0 1 0 RC
10.0 ML
2 LW
N
518.037 383.5 M
524.963 383.5 L
521.5 377.501 L
cp
S
GR
GS
1 LJ
2 LW
N
75 382 M
97.325 382 L
119.65 382 L
141.975 382 L
164.3 382 L
186.625 382 L
208.95 382 L
231.275 382 L
253.6 382 L
275.925 382 L
298.25 382 L
320.575 382 L
342.9 382 L
365.225 382 L
387.55 382 L
409.875 382 L
432.2 382 L
454.525 382 L
476.85 382 L
499.175 382 L
521.5 382 L
S
GR
GS
1 LJ
2 LW
N
72 381.5 M
79 381.5 L
S
GR
GS
1 LJ
2 LW
N
75.5 385 M
75.5 378 L
S
GR
GS
1 LJ
2 LW
N
73 384 M
78 379 L
S
GR
GS
1 LJ
2 LW
N
73 379 M
78 384 L
S
GR
GS
1 LJ
2 LW
N
94 381.5 M
101 381.5 L
S
GR
GS
1 LJ
2 LW
N
97.5 385 M
97.5 378 L
S
GR
GS
1 LJ
2 LW
N
95 384 M
100 379 L
S
GR
GS
1 LJ
2 LW
N
95 379 M
100 384 L
S
GR
GS
1 LJ
2 LW
N
116 381.5 M
123 381.5 L
S
GR
GS
1 LJ
2 LW
N
119.5 385 M
119.5 378 L
S
GR
GS
1 LJ
2 LW
N
117 384 M
122 379 L
S
GR
GS
1 LJ
2 LW
N
117 379 M
122 384 L
S
GR
GS
1 LJ
2 LW
N
138 381.5 M
145 381.5 L
S
GR
GS
1 LJ
2 LW
N
141.5 385 M
141.5 378 L
S
GR
GS
1 LJ
2 LW
N
139 384 M
144 379 L
S
GR
GS
1 LJ
2 LW
N
139 379 M
144 384 L
S
GR
GS
1 LJ
2 LW
N
161 381.5 M
168 381.5 L
S
GR
GS
1 LJ
2 LW
N
164.5 385 M
164.5 378 L
S
GR
GS
1 LJ
2 LW
N
162 384 M
167 379 L
S
GR
GS
1 LJ
2 LW
N
162 379 M
167 384 L
S
GR
GS
1 LJ
2 LW
N
183 381.5 M
190 381.5 L
S
GR
GS
1 LJ
2 LW
N
186.5 385 M
186.5 378 L
S
GR
GS
1 LJ
2 LW
N
184 384 M
189 379 L
S
GR
GS
1 LJ
2 LW
N
184 379 M
189 384 L
S
GR
GS
1 LJ
2 LW
N
205 381.5 M
212 381.5 L
S
GR
GS
1 LJ
2 LW
N
208.5 385 M
208.5 378 L
S
GR
GS
1 LJ
2 LW
N
206 384 M
211 379 L
S
GR
GS
1 LJ
2 LW
N
206 379 M
211 384 L
S
GR
GS
1 LJ
2 LW
N
228 381.5 M
235 381.5 L
S
GR
GS
1 LJ
2 LW
N
231.5 385 M
231.5 378 L
S
GR
GS
1 LJ
2 LW
N
229 384 M
234 379 L
S
GR
GS
1 LJ
2 LW
N
229 379 M
234 384 L
S
GR
GS
1 LJ
2 LW
N
250 381.5 M
257 381.5 L
S
GR
GS
1 LJ
2 LW
N
253.5 385 M
253.5 378 L
S
GR
GS
1 LJ
2 LW
N
251 384 M
256 379 L
S
GR
GS
1 LJ
2 LW
N
251 379 M
256 384 L
S
GR
GS
1 LJ
2 LW
N
272 381.5 M
279 381.5 L
S
GR
GS
1 LJ
2 LW
N
275.5 385 M
275.5 378 L
S
GR
GS
1 LJ
2 LW
N
273 384 M
278 379 L
S
GR
GS
1 LJ
2 LW
N
273 379 M
278 384 L
S
GR
GS
1 LJ
2 LW
N
295 381.5 M
302 381.5 L
S
GR
GS
1 LJ
2 LW
N
298.5 385 M
298.5 378 L
S
GR
GS
1 LJ
2 LW
N
296 384 M
301 379 L
S
GR
GS
1 LJ
2 LW
N
296 379 M
301 384 L
S
GR
GS
1 LJ
2 LW
N
317 381.5 M
324 381.5 L
S
GR
GS
1 LJ
2 LW
N
320.5 385 M
320.5 378 L
S
GR
GS
1 LJ
2 LW
N
318 384 M
323 379 L
S
GR
GS
1 LJ
2 LW
N
318 379 M
323 384 L
S
GR
GS
1 LJ
2 LW
N
339 381.5 M
346 381.5 L
S
GR
GS
1 LJ
2 LW
N
342.5 385 M
342.5 378 L
S
GR
GS
1 LJ
2 LW
N
340 384 M
345 379 L
S
GR
GS
1 LJ
2 LW
N
340 379 M
345 384 L
S
GR
GS
1 LJ
2 LW
N
362 381.5 M
369 381.5 L
S
GR
GS
1 LJ
2 LW
N
365.5 385 M
365.5 378 L
S
GR
GS
1 LJ
2 LW
N
363 384 M
368 379 L
S
GR
GS
1 LJ
2 LW
N
363 379 M
368 384 L
S
GR
GS
1 LJ
2 LW
N
384 381.5 M
391 381.5 L
S
GR
GS
1 LJ
2 LW
N
387.5 385 M
387.5 378 L
S
GR
GS
1 LJ
2 LW
N
385 384 M
390 379 L
S
GR
GS
1 LJ
2 LW
N
385 379 M
390 384 L
S
GR
GS
1 LJ
2 LW
N
406 381.5 M
413 381.5 L
S
GR
GS
1 LJ
2 LW
N
409.5 385 M
409.5 378 L
S
GR
GS
1 LJ
2 LW
N
407 384 M
412 379 L
S
GR
GS
1 LJ
2 LW
N
407 379 M
412 384 L
S
GR
GS
1 LJ
2 LW
N
429 381.5 M
436 381.5 L
S
GR
GS
1 LJ
2 LW
N
432.5 385 M
432.5 378 L
S
GR
GS
1 LJ
2 LW
N
430 384 M
435 379 L
S
GR
GS
1 LJ
2 LW
N
430 379 M
435 384 L
S
GR
GS
1 LJ
2 LW
N
451 381.5 M
458 381.5 L
S
GR
GS
1 LJ
2 LW
N
454.5 385 M
454.5 378 L
S
GR
GS
1 LJ
2 LW
N
452 384 M
457 379 L
S
GR
GS
1 LJ
2 LW
N
452 379 M
457 384 L
S
GR
GS
1 LJ
2 LW
N
473 381.5 M
480 381.5 L
S
GR
GS
1 LJ
2 LW
N
476.5 385 M
476.5 378 L
S
GR
GS
1 LJ
2 LW
N
474 384 M
479 379 L
S
GR
GS
1 LJ
2 LW
N
474 379 M
479 384 L
S
GR
GS
1 LJ
2 LW
N
496 381.5 M
503 381.5 L
S
GR
GS
1 LJ
2 LW
N
499.5 385 M
499.5 378 L
S
GR
GS
1 LJ
2 LW
N
497 384 M
502 379 L
S
GR
GS
1 LJ
2 LW
N
497 379 M
502 384 L
S
GR
GS
1 LJ
2 LW
N
518 381.5 M
525 381.5 L
S
GR
GS
1 LJ
2 LW
N
521.5 385 M
521.5 378 L
S
GR
GS
1 LJ
2 LW
N
519 384 M
524 379 L
S
GR
GS
1 LJ
2 LW
N
519 379 M
524 384 L
S
GR
GS
1 GC
N
75.5 112 M
75.5 32.5 L
227 32.5 L
227 112 L
cp
f
GR
GS
[1 0 0 1 114.5 43.75] CT
/Helvetica 18 F
GS
[1 0 0 1 0 0] CT
0 4.5 moveto 
1 -1 scale
(DHT) t 
GR
GR
GS
0 0 1 RC
1 LJ
2 LW
N
81.5 43.75 M
111.5 43.75 L
S
GR
GS
0 0 1 RC
1 LJ
2 LW
N
99.5 43.5 M
98.621 41.379 L
96.5 40.5 L
94.379 41.379 L
93.5 43.5 L
94.379 45.621 L
96.5 46.5 L
98.621 45.621 L
cp
S
GR
GS
[1 0 0 1 114.5 62.75] CT
/Helvetica 18 F
GS
[1 0 0 1 0 0] CT
0 4.5 moveto 
1 -1 scale
(DST) t 
GR
GR
GS
1 0 0 RC
1 LJ
2 LW
N
81.5 62.75 M
111.5 62.75 L
S
GR
GS
1 0 0 RC
10.0 ML
2 LW
N
94.16 64.84 M
94.16 60.16 L
98.84 60.16 L
98.84 64.84 L
cp
S
GR
GS
[1 0 0 1 114.5 81.75] CT
/Helvetica 18 F
GS
[1 0 0 1 0 0] CT
0 4.5 moveto 
1 -1 scale
(OneShot) t 
GR
GR
GS
0 1 0 RC
1 LJ
2 LW
N
81.5 81.75 M
111.5 81.75 L
S
GR
GS
0 1 0 RC
10.0 ML
2 LW
N
93.037 83.499 M
99.963 83.499 L
96.5 77.501 L
cp
S
GR
GS
[1 0 0 1 114.5 100.75] CT
/Helvetica 18 F
GS
[1 0 0 1 0 0] CT
0 4.5 moveto 
1 -1 scale
(NLCDLASSO) t 
GR
GR
GS
1 LJ
2 LW
N
81.5 100.75 M
111.5 100.75 L
S
GR
GS
1 LJ
2 LW
N
93 100.5 M
100 100.5 L
S
GR
GS
1 LJ
2 LW
N
96.5 104 M
96.5 97 L
S
GR
GS
1 LJ
2 LW
N
94 103 M
99 98 L
S
GR
GS
1 LJ
2 LW
N
94 98 M
99 103 L
S
GR
GS
0.149 GC
10.0 ML
0.5 LW
N
75.5 112 M
75.5 32.5 L
227 32.5 L
227 112 L
cp
S
GR
%%Trailer
%%Pages: 1
%%EOF
