%!PS-Adobe-3.0 EPSF-3.0
%%Creator: (MATLAB, The Mathworks, Inc. Version 8.6.0.267246 \(R2015b\). Operating System: Mac OS X)
%%Title: ./all2.eps
%%CreationDate: 2016-04-28T17:34:25
%%Pages: (atend)
%%BoundingBox:    15     0   544   410
%%LanguageLevel: 3
%%EndComments
%%BeginProlog
%%BeginResource: procset (Apache XML Graphics Std ProcSet) 1.2 0
%%Version: 1.2 0
%%Copyright: (Copyright 2001-2003,2010 The Apache Software Foundation. License terms: http://www.apache.org/licenses/LICENSE-2.0)
/bd{bind def}bind def
/ld{load def}bd
/GR/grestore ld
/M/moveto ld
/LJ/setlinejoin ld
/C/curveto ld
/f/fill ld
/LW/setlinewidth ld
/GC/setgray ld
/t/show ld
/N/newpath ld
/CT/concat ld
/cp/closepath ld
/S/stroke ld
/L/lineto ld
/CC/setcmykcolor ld
/A/ashow ld
/GS/gsave ld
/RC/setrgbcolor ld
/RM/rmoveto ld
/ML/setmiterlimit ld
/re {4 2 roll M
1 index 0 rlineto
0 exch rlineto
neg 0 rlineto
cp } bd
/_ctm matrix def
/_tm matrix def
/BT { _ctm currentmatrix pop matrix _tm copy pop 0 0 moveto } bd
/ET { _ctm setmatrix } bd
/iTm { _ctm setmatrix _tm concat } bd
/Tm { _tm astore pop iTm 0 0 moveto } bd
/ux 0.0 def
/uy 0.0 def
/F {
  /Tp exch def
  /Tf exch def
  Tf findfont Tp scalefont setfont
  /cf Tf def  /cs Tp def
} bd
/ULS {currentpoint /uy exch def /ux exch def} bd
/ULE {
  /Tcx currentpoint pop def
  gsave
  newpath
  cf findfont cs scalefont dup
  /FontMatrix get 0 get /Ts exch def /FontInfo get dup
  /UnderlinePosition get Ts mul /To exch def
  /UnderlineThickness get Ts mul /Tt exch def
  ux uy To add moveto  Tcx uy To add lineto
  Tt setlinewidth stroke
  grestore
} bd
/OLE {
  /Tcx currentpoint pop def
  gsave
  newpath
  cf findfont cs scalefont dup
  /FontMatrix get 0 get /Ts exch def /FontInfo get dup
  /UnderlinePosition get Ts mul /To exch def
  /UnderlineThickness get Ts mul /Tt exch def
  ux uy To add cs add moveto Tcx uy To add cs add lineto
  Tt setlinewidth stroke
  grestore
} bd
/SOE {
  /Tcx currentpoint pop def
  gsave
  newpath
  cf findfont cs scalefont dup
  /FontMatrix get 0 get /Ts exch def /FontInfo get dup
  /UnderlinePosition get Ts mul /To exch def
  /UnderlineThickness get Ts mul /Tt exch def
  ux uy To add cs 10 mul 26 idiv add moveto Tcx uy To add cs 10 mul 26 idiv add lineto
  Tt setlinewidth stroke
  grestore
} bd
/QT {
/Y22 exch store
/X22 exch store
/Y21 exch store
/X21 exch store
currentpoint
/Y21 load 2 mul add 3 div exch
/X21 load 2 mul add 3 div exch
/X21 load 2 mul /X22 load add 3 div
/Y21 load 2 mul /Y22 load add 3 div
/X22 load /Y22 load curveto
} bd
/SSPD {
dup length /d exch dict def
{
/v exch def
/k exch def
currentpagedevice k known {
/cpdv currentpagedevice k get def
v cpdv ne {
/upd false def
/nullv v type /nulltype eq def
/nullcpdv cpdv type /nulltype eq def
nullv nullcpdv or
{
/upd true def
} {
/sametype v type cpdv type eq def
sametype {
v type /arraytype eq {
/vlen v length def
/cpdvlen cpdv length def
vlen cpdvlen eq {
0 1 vlen 1 sub {
/i exch def
/obj v i get def
/cpdobj cpdv i get def
obj cpdobj ne {
/upd true def
exit
} if
} for
} {
/upd true def
} ifelse
} {
v type /dicttype eq {
v {
/dv exch def
/dk exch def
/cpddv cpdv dk get def
dv cpddv ne {
/upd true def
exit
} if
} forall
} {
/upd true def
} ifelse
} ifelse
} if
} ifelse
upd true eq {
d k v put
} if
} if
} if
} forall
d length 0 gt {
d setpagedevice
} if
} bd
%%EndResource
%%BeginResource: procset (Apache XML Graphics EPS ProcSet) 1.0 0
%%Version: 1.0 0
%%Copyright: (Copyright 2002-2003 The Apache Software Foundation. License terms: http://www.apache.org/licenses/LICENSE-2.0)
/BeginEPSF { %def
/b4_Inc_state save def         % Save state for cleanup
/dict_count countdictstack def % Count objects on dict stack
/op_count count 1 sub def      % Count objects on operand stack
userdict begin                 % Push userdict on dict stack
/showpage { } def              % Redefine showpage, { } = null proc
0 setgray 0 setlinecap         % Prepare graphics state
1 setlinewidth 0 setlinejoin
10 setmiterlimit [ ] 0 setdash newpath
/languagelevel where           % If level not equal to 1 then
{pop languagelevel             % set strokeadjust and
1 ne                           % overprint to their defaults.
{false setstrokeadjust false setoverprint
} if
} if
} bd
/EndEPSF { %def
count op_count sub {pop} repeat            % Clean up stacks
countdictstack dict_count sub {end} repeat
b4_Inc_state restore
} bd
%%EndResource
%FOPBeginFontDict
%%IncludeResource: font Courier-Bold
%%IncludeResource: font Helvetica
%%IncludeResource: font Courier-BoldOblique
%%IncludeResource: font Courier-Oblique
%%IncludeResource: font Times-Roman
%%IncludeResource: font Helvetica-BoldOblique
%%IncludeResource: font Helvetica-Bold
%%IncludeResource: font Helvetica-Oblique
%%IncludeResource: font Times-BoldItalic
%%IncludeResource: font Courier
%%IncludeResource: font Times-Italic
%%IncludeResource: font Times-Bold
%%IncludeResource: font Symbol
%%IncludeResource: font ZapfDingbats
%FOPEndFontDict
%%BeginResource: encoding WinAnsiEncoding
/WinAnsiEncoding [
/.notdef /.notdef /.notdef /.notdef /.notdef
/.notdef /.notdef /.notdef /.notdef /.notdef
/.notdef /.notdef /.notdef /.notdef /.notdef
/.notdef /.notdef /.notdef /.notdef /.notdef
/.notdef /.notdef /.notdef /.notdef /.notdef
/.notdef /.notdef /.notdef /.notdef /.notdef
/.notdef /.notdef /space /exclam /quotedbl
/numbersign /dollar /percent /ampersand /quotesingle
/parenleft /parenright /asterisk /plus /comma
/hyphen /period /slash /zero /one
/two /three /four /five /six
/seven /eight /nine /colon /semicolon
/less /equal /greater /question /at
/A /B /C /D /E
/F /G /H /I /J
/K /L /M /N /O
/P /Q /R /S /T
/U /V /W /X /Y
/Z /bracketleft /backslash /bracketright /asciicircum
/underscore /quoteleft /a /b /c
/d /e /f /g /h
/i /j /k /l /m
/n /o /p /q /r
/s /t /u /v /w
/x /y /z /braceleft /bar
/braceright /asciitilde /bullet /Euro /bullet
/quotesinglbase /florin /quotedblbase /ellipsis /dagger
/daggerdbl /circumflex /perthousand /Scaron /guilsinglleft
/OE /bullet /Zcaron /bullet /bullet
/quoteleft /quoteright /quotedblleft /quotedblright /bullet
/endash /emdash /asciitilde /trademark /scaron
/guilsinglright /oe /bullet /zcaron /Ydieresis
/space /exclamdown /cent /sterling /currency
/yen /brokenbar /section /dieresis /copyright
/ordfeminine /guillemotleft /logicalnot /sfthyphen /registered
/macron /degree /plusminus /twosuperior /threesuperior
/acute /mu /paragraph /middot /cedilla
/onesuperior /ordmasculine /guillemotright /onequarter /onehalf
/threequarters /questiondown /Agrave /Aacute /Acircumflex
/Atilde /Adieresis /Aring /AE /Ccedilla
/Egrave /Eacute /Ecircumflex /Edieresis /Igrave
/Iacute /Icircumflex /Idieresis /Eth /Ntilde
/Ograve /Oacute /Ocircumflex /Otilde /Odieresis
/multiply /Oslash /Ugrave /Uacute /Ucircumflex
/Udieresis /Yacute /Thorn /germandbls /agrave
/aacute /acircumflex /atilde /adieresis /aring
/ae /ccedilla /egrave /eacute /ecircumflex
/edieresis /igrave /iacute /icircumflex /idieresis
/eth /ntilde /ograve /oacute /ocircumflex
/otilde /odieresis /divide /oslash /ugrave
/uacute /ucircumflex /udieresis /yacute /thorn
/ydieresis
] def
%%EndResource
%FOPBeginFontReencode
/Courier-Bold findfont
dup length dict begin
  {1 index /FID ne {def} {pop pop} ifelse} forall
  /Encoding WinAnsiEncoding def
  currentdict
end
/Courier-Bold exch definefont pop
/Helvetica findfont
dup length dict begin
  {1 index /FID ne {def} {pop pop} ifelse} forall
  /Encoding WinAnsiEncoding def
  currentdict
end
/Helvetica exch definefont pop
/Courier-BoldOblique findfont
dup length dict begin
  {1 index /FID ne {def} {pop pop} ifelse} forall
  /Encoding WinAnsiEncoding def
  currentdict
end
/Courier-BoldOblique exch definefont pop
/Courier-Oblique findfont
dup length dict begin
  {1 index /FID ne {def} {pop pop} ifelse} forall
  /Encoding WinAnsiEncoding def
  currentdict
end
/Courier-Oblique exch definefont pop
/Times-Roman findfont
dup length dict begin
  {1 index /FID ne {def} {pop pop} ifelse} forall
  /Encoding WinAnsiEncoding def
  currentdict
end
/Times-Roman exch definefont pop
/Helvetica-BoldOblique findfont
dup length dict begin
  {1 index /FID ne {def} {pop pop} ifelse} forall
  /Encoding WinAnsiEncoding def
  currentdict
end
/Helvetica-BoldOblique exch definefont pop
/Helvetica-Bold findfont
dup length dict begin
  {1 index /FID ne {def} {pop pop} ifelse} forall
  /Encoding WinAnsiEncoding def
  currentdict
end
/Helvetica-Bold exch definefont pop
/Helvetica-Oblique findfont
dup length dict begin
  {1 index /FID ne {def} {pop pop} ifelse} forall
  /Encoding WinAnsiEncoding def
  currentdict
end
/Helvetica-Oblique exch definefont pop
/Times-BoldItalic findfont
dup length dict begin
  {1 index /FID ne {def} {pop pop} ifelse} forall
  /Encoding WinAnsiEncoding def
  currentdict
end
/Times-BoldItalic exch definefont pop
/Courier findfont
dup length dict begin
  {1 index /FID ne {def} {pop pop} ifelse} forall
  /Encoding WinAnsiEncoding def
  currentdict
end
/Courier exch definefont pop
/Times-Italic findfont
dup length dict begin
  {1 index /FID ne {def} {pop pop} ifelse} forall
  /Encoding WinAnsiEncoding def
  currentdict
end
/Times-Italic exch definefont pop
/Times-Bold findfont
dup length dict begin
  {1 index /FID ne {def} {pop pop} ifelse} forall
  /Encoding WinAnsiEncoding def
  currentdict
end
/Times-Bold exch definefont pop
%FOPEndFontReencode
%%EndProlog
%%Page: 1 1
%%PageBoundingBox: 0 0 576 432
%%BeginPageSetup
[1 0 0 -1 0 432] CT
%%EndPageSetup
GS
1 GC
N
0 0 576 432 re
f
GR
GS
1 GC
N
0 0 576 432 re
f
GR
GS
1 GC
N
75 382 M
521.5 382 L
521.5 32.5 L
75 32.5 L
cp
f
GR
GS
0.873 GC
1 LJ
0.5 LW
N
75 382 M
75 32.5 L
S
GR
GS
0.873 GC
1 LJ
0.5 LW
N
164.3 382 M
164.3 32.5 L
S
GR
GS
0.873 GC
1 LJ
0.5 LW
N
253.6 382 M
253.6 32.5 L
S
GR
GS
0.873 GC
1 LJ
0.5 LW
N
342.9 382 M
342.9 32.5 L
S
GR
GS
0.873 GC
1 LJ
0.5 LW
N
432.2 382 M
432.2 32.5 L
S
GR
GS
0.873 GC
1 LJ
0.5 LW
N
521.5 382 M
521.5 32.5 L
S
GR
GS
0.873 GC
1 LJ
0.5 LW
N
521.5 382 M
75 382 L
S
GR
GS
0.873 GC
1 LJ
0.5 LW
N
521.5 312.1 M
75 312.1 L
S
GR
GS
0.873 GC
1 LJ
0.5 LW
N
521.5 242.2 M
75 242.2 L
S
GR
GS
0.873 GC
1 LJ
0.5 LW
N
521.5 172.3 M
75 172.3 L
S
GR
GS
0.873 GC
1 LJ
0.5 LW
N
521.5 102.4 M
75 102.4 L
S
GR
GS
0.873 GC
1 LJ
0.5 LW
N
521.5 32.5 M
75 32.5 L
S
GR
GS
0.149 GC
2 setlinecap
1 LJ
0.5 LW
N
75 382 M
521.5 382 L
S
GR
GS
0.149 GC
2 setlinecap
1 LJ
0.5 LW
N
75 382 M
75 377.535 L
S
GR
GS
0.149 GC
2 setlinecap
1 LJ
0.5 LW
N
164.3 382 M
164.3 377.535 L
S
GR
GS
0.149 GC
2 setlinecap
1 LJ
0.5 LW
N
253.6 382 M
253.6 377.535 L
S
GR
GS
0.149 GC
2 setlinecap
1 LJ
0.5 LW
N
342.9 382 M
342.9 377.535 L
S
GR
GS
0.149 GC
2 setlinecap
1 LJ
0.5 LW
N
432.2 382 M
432.2 377.535 L
S
GR
GS
0.149 GC
2 setlinecap
1 LJ
0.5 LW
N
521.5 382 M
521.5 377.535 L
S
GR
GS
[1 0 0 1 75 388] CT
0.149 GC
/Helvetica 20 F
GS
[1 0 0 1 0 0] CT
-6 16 moveto 
1 -1 scale
(0) t 
GR
GR
GS
[1 0 0 1 164.3 388] CT
0.149 GC
/Helvetica 20 F
GS
[1 0 0 1 0 0] CT
-22.5 16 moveto 
1 -1 scale
(1000) t 
GR
GR
GS
[1 0 0 1 253.60001 388] CT
0.149 GC
/Helvetica 20 F
GS
[1 0 0 1 0 0] CT
-22.5 16 moveto 
1 -1 scale
(2000) t 
GR
GR
GS
[1 0 0 1 342.89999 388] CT
0.149 GC
/Helvetica 20 F
GS
[1 0 0 1 0 0] CT
-22.5 16 moveto 
1 -1 scale
(3000) t 
GR
GR
GS
[1 0 0 1 432.20001 388] CT
0.149 GC
/Helvetica 20 F
GS
[1 0 0 1 0 0] CT
-22.5 16 moveto 
1 -1 scale
(4000) t 
GR
GR
GS
[1 0 0 1 521.5 388] CT
0.149 GC
/Helvetica 20 F
GS
[1 0 0 1 0 0] CT
-22.5 16 moveto 
1 -1 scale
(5000) t 
GR
GR
GS
[1 0 0 1 298.25021 409.5] CT
0.149 GC
/Helvetica 22 F
GS
[1 0 0 1 0 0] CT
-127.5 17 moveto 
1 -1 scale
(Number of measurements) t 
GR
GR
GS
0.149 GC
2 setlinecap
1 LJ
0.5 LW
N
75 382 M
75 32.5 L
S
GR
GS
0.149 GC
2 setlinecap
1 LJ
0.5 LW
N
75 382 M
79.465 382 L
S
GR
GS
0.149 GC
2 setlinecap
1 LJ
0.5 LW
N
75 312.1 M
79.465 312.1 L
S
GR
GS
0.149 GC
2 setlinecap
1 LJ
0.5 LW
N
75 242.2 M
79.465 242.2 L
S
GR
GS
0.149 GC
2 setlinecap
1 LJ
0.5 LW
N
75 172.3 M
79.465 172.3 L
S
GR
GS
0.149 GC
2 setlinecap
1 LJ
0.5 LW
N
75 102.4 M
79.465 102.4 L
S
GR
GS
0.149 GC
2 setlinecap
1 LJ
0.5 LW
N
75 32.5 M
79.465 32.5 L
S
GR
GS
[1 0 0 1 69 382] CT
0.149 GC
/Helvetica 20 F
GS
[1 0 0 1 0 0] CT
-12 5.5 moveto 
1 -1 scale
(0) t 
GR
GR
GS
[1 0 0 1 69 312.10001] CT
0.149 GC
/Helvetica 20 F
GS
[1 0 0 1 0 0] CT
-28 5.5 moveto 
1 -1 scale
(0.2) t 
GR
GR
GS
[1 0 0 1 69 242.2] CT
0.149 GC
/Helvetica 20 F
GS
[1 0 0 1 0 0] CT
-28 5.5 moveto 
1 -1 scale
(0.4) t 
GR
GR
GS
[1 0 0 1 69 172.29999] CT
0.149 GC
/Helvetica 20 F
GS
[1 0 0 1 0 0] CT
-28 5.5 moveto 
1 -1 scale
(0.6) t 
GR
GR
GS
[1 0 0 1 69 102.39999] CT
0.149 GC
/Helvetica 20 F
GS
[1 0 0 1 0 0] CT
-28 5.5 moveto 
1 -1 scale
(0.8) t 
GR
GR
GS
[1 0 0 1 69 32.5] CT
0.149 GC
/Helvetica 20 F
GS
[1 0 0 1 0 0] CT
-12 5.5 moveto 
1 -1 scale
(1) t 
GR
GR
GS
[0 -1 1 0 38 207.24983] CT
0.149 GC
/Helvetica 22 F
GS
[1 0 0 1 0 0] CT
-80.5 -6 moveto 
1 -1 scale
(Cosine similarity) t 
GR
GR
GS
0 0 1 RC
1 LJ
2 LW
N
79.465 380.553 M
97.325 161.09 L
115.185 45.9 L
133.045 34.903 L
150.905 34.223 L
168.765 33.86 L
186.625 33.659 L
204.485 33.44 L
222.345 33.434 L
240.205 33.285 L
258.065 33.185 L
275.925 33.067 L
293.785 33.042 L
311.645 33.013 L
329.505 32.954 L
347.365 32.969 L
365.225 32.959 L
383.085 32.92 L
400.945 32.843 L
418.805 32.844 L
436.665 32.887 L
454.525 32.838 L
472.385 32.803 L
490.245 32.779 L
508.105 32.785 L
S
GR
GS
0 0 1 RC
1 LJ
2 LW
N
82.5 380.5 M
81.621 378.379 L
79.5 377.5 L
77.379 378.379 L
76.5 380.5 L
77.379 382.621 L
79.5 383.5 L
81.621 382.621 L
cp
S
GR
GS
0 0 1 RC
1 LJ
2 LW
N
100.5 161.5 M
99.621 159.379 L
97.5 158.5 L
95.379 159.379 L
94.5 161.5 L
95.379 163.621 L
97.5 164.5 L
99.621 163.621 L
cp
S
GR
GS
0 0 1 RC
1 LJ
2 LW
N
118.5 45.5 M
117.621 43.379 L
115.5 42.5 L
113.379 43.379 L
112.5 45.5 L
113.379 47.621 L
115.5 48.5 L
117.621 47.621 L
cp
S
GR
GS
0 0 1 RC
1 LJ
2 LW
N
136.5 34.5 M
135.621 32.379 L
133.5 31.5 L
131.379 32.379 L
130.5 34.5 L
131.379 36.621 L
133.5 37.5 L
135.621 36.621 L
cp
S
GR
GS
0 0 1 RC
1 LJ
2 LW
N
153.5 34.5 M
152.621 32.379 L
150.5 31.5 L
148.379 32.379 L
147.5 34.5 L
148.379 36.621 L
150.5 37.5 L
152.621 36.621 L
cp
S
GR
GS
0 0 1 RC
1 LJ
2 LW
N
171.5 33.5 M
170.621 31.379 L
168.5 30.5 L
166.379 31.379 L
165.5 33.5 L
166.379 35.621 L
168.5 36.5 L
170.621 35.621 L
cp
S
GR
GS
0 0 1 RC
1 LJ
2 LW
N
189.5 33.5 M
188.621 31.379 L
186.5 30.5 L
184.379 31.379 L
183.5 33.5 L
184.379 35.621 L
186.5 36.5 L
188.621 35.621 L
cp
S
GR
GS
0 0 1 RC
1 LJ
2 LW
N
207.5 33.5 M
206.621 31.379 L
204.5 30.5 L
202.379 31.379 L
201.5 33.5 L
202.379 35.621 L
204.5 36.5 L
206.621 35.621 L
cp
S
GR
GS
0 0 1 RC
1 LJ
2 LW
N
225.5 33.5 M
224.621 31.379 L
222.5 30.5 L
220.379 31.379 L
219.5 33.5 L
220.379 35.621 L
222.5 36.5 L
224.621 35.621 L
cp
S
GR
GS
0 0 1 RC
1 LJ
2 LW
N
243.5 33.5 M
242.621 31.379 L
240.5 30.5 L
238.379 31.379 L
237.5 33.5 L
238.379 35.621 L
240.5 36.5 L
242.621 35.621 L
cp
S
GR
GS
0 0 1 RC
1 LJ
2 LW
N
261.5 33.5 M
260.621 31.379 L
258.5 30.5 L
256.379 31.379 L
255.5 33.5 L
256.379 35.621 L
258.5 36.5 L
260.621 35.621 L
cp
S
GR
GS
0 0 1 RC
1 LJ
2 LW
N
278.5 33.5 M
277.621 31.379 L
275.5 30.5 L
273.379 31.379 L
272.5 33.5 L
273.379 35.621 L
275.5 36.5 L
277.621 35.621 L
cp
S
GR
GS
0 0 1 RC
1 LJ
2 LW
N
296.5 33.5 M
295.621 31.379 L
293.5 30.5 L
291.379 31.379 L
290.5 33.5 L
291.379 35.621 L
293.5 36.5 L
295.621 35.621 L
cp
S
GR
GS
0 0 1 RC
1 LJ
2 LW
N
314.5 33.5 M
313.621 31.379 L
311.5 30.5 L
309.379 31.379 L
308.5 33.5 L
309.379 35.621 L
311.5 36.5 L
313.621 35.621 L
cp
S
GR
GS
0 0 1 RC
1 LJ
2 LW
N
332.5 32.5 M
331.621 30.379 L
329.5 29.5 L
327.379 30.379 L
326.5 32.5 L
327.379 34.621 L
329.5 35.5 L
331.621 34.621 L
cp
S
GR
GS
0 0 1 RC
1 LJ
2 LW
N
350.5 32.5 M
349.621 30.379 L
347.5 29.5 L
345.379 30.379 L
344.5 32.5 L
345.379 34.621 L
347.5 35.5 L
349.621 34.621 L
cp
S
GR
GS
0 0 1 RC
1 LJ
2 LW
N
368.5 32.5 M
367.621 30.379 L
365.5 29.5 L
363.379 30.379 L
362.5 32.5 L
363.379 34.621 L
365.5 35.5 L
367.621 34.621 L
cp
S
GR
GS
0 0 1 RC
1 LJ
2 LW
N
386.5 32.5 M
385.621 30.379 L
383.5 29.5 L
381.379 30.379 L
380.5 32.5 L
381.379 34.621 L
383.5 35.5 L
385.621 34.621 L
cp
S
GR
GS
0 0 1 RC
1 LJ
2 LW
N
403.5 32.5 M
402.621 30.379 L
400.5 29.5 L
398.379 30.379 L
397.5 32.5 L
398.379 34.621 L
400.5 35.5 L
402.621 34.621 L
cp
S
GR
GS
0 0 1 RC
1 LJ
2 LW
N
421.5 32.5 M
420.621 30.379 L
418.5 29.5 L
416.379 30.379 L
415.5 32.5 L
416.379 34.621 L
418.5 35.5 L
420.621 34.621 L
cp
S
GR
GS
0 0 1 RC
1 LJ
2 LW
N
439.5 32.5 M
438.621 30.379 L
436.5 29.5 L
434.379 30.379 L
433.5 32.5 L
434.379 34.621 L
436.5 35.5 L
438.621 34.621 L
cp
S
GR
GS
0 0 1 RC
1 LJ
2 LW
N
457.5 32.5 M
456.621 30.379 L
454.5 29.5 L
452.379 30.379 L
451.5 32.5 L
452.379 34.621 L
454.5 35.5 L
456.621 34.621 L
cp
S
GR
GS
0 0 1 RC
1 LJ
2 LW
N
475.5 32.5 M
474.621 30.379 L
472.5 29.5 L
470.379 30.379 L
469.5 32.5 L
470.379 34.621 L
472.5 35.5 L
474.621 34.621 L
cp
S
GR
GS
0 0 1 RC
1 LJ
2 LW
N
493.5 32.5 M
492.621 30.379 L
490.5 29.5 L
488.379 30.379 L
487.5 32.5 L
488.379 34.621 L
490.5 35.5 L
492.621 34.621 L
cp
S
GR
GS
0 0 1 RC
1 LJ
2 LW
N
511.5 32.5 M
510.621 30.379 L
508.5 29.5 L
506.379 30.379 L
505.5 32.5 L
506.379 34.621 L
508.5 35.5 L
510.621 34.621 L
cp
S
GR
GS
1 0 0 RC
1 LJ
2 LW
N
79.465 381.72 M
97.325 359.727 L
115.185 270.969 L
133.045 172.467 L
150.905 105.072 L
168.765 68.574 L
186.625 50.335 L
204.485 41.126 L
222.345 36.918 L
240.205 35.793 L
258.065 34.941 L
275.925 34.646 L
293.785 34.479 L
311.645 34.321 L
329.505 34.274 L
347.365 34.069 L
365.225 33.975 L
383.085 33.924 L
400.945 33.859 L
418.805 33.803 L
436.665 33.717 L
454.525 33.671 L
472.385 33.566 L
490.245 33.589 L
508.105 33.516 L
S
GR
GS
1 0 0 RC
10.0 ML
2 LW
N
77.16 383.84 M
77.16 379.16 L
81.84 379.16 L
81.84 383.84 L
cp
S
GR
GS
1 0 0 RC
10.0 ML
2 LW
N
95.16 361.84 M
95.16 357.16 L
99.84 357.16 L
99.84 361.84 L
cp
S
GR
GS
1 0 0 RC
10.0 ML
2 LW
N
113.16 272.84 M
113.16 268.16 L
117.84 268.16 L
117.84 272.84 L
cp
S
GR
GS
1 0 0 RC
10.0 ML
2 LW
N
131.16 174.84 M
131.16 170.16 L
135.84 170.16 L
135.84 174.84 L
cp
S
GR
GS
1 0 0 RC
10.0 ML
2 LW
N
148.16 107.84 M
148.16 103.16 L
152.84 103.16 L
152.84 107.84 L
cp
S
GR
GS
1 0 0 RC
10.0 ML
2 LW
N
166.16 70.84 M
166.16 66.16 L
170.84 66.16 L
170.84 70.84 L
cp
S
GR
GS
1 0 0 RC
10.0 ML
2 LW
N
184.16 52.84 M
184.16 48.16 L
188.84 48.16 L
188.84 52.84 L
cp
S
GR
GS
1 0 0 RC
10.0 ML
2 LW
N
202.16 43.84 M
202.16 39.16 L
206.84 39.16 L
206.84 43.84 L
cp
S
GR
GS
1 0 0 RC
10.0 ML
2 LW
N
220.16 38.84 M
220.16 34.16 L
224.84 34.16 L
224.84 38.84 L
cp
S
GR
GS
1 0 0 RC
10.0 ML
2 LW
N
238.16 37.84 M
238.16 33.16 L
242.84 33.16 L
242.84 37.84 L
cp
S
GR
GS
1 0 0 RC
10.0 ML
2 LW
N
256.16 36.84 M
256.16 32.16 L
260.84 32.16 L
260.84 36.84 L
cp
S
GR
GS
1 0 0 RC
10.0 ML
2 LW
N
273.16 36.84 M
273.16 32.16 L
277.84 32.16 L
277.84 36.84 L
cp
S
GR
GS
1 0 0 RC
10.0 ML
2 LW
N
291.16 36.84 M
291.16 32.16 L
295.84 32.16 L
295.84 36.84 L
cp
S
GR
GS
1 0 0 RC
10.0 ML
2 LW
N
309.16 36.84 M
309.16 32.16 L
313.84 32.16 L
313.84 36.84 L
cp
S
GR
GS
1 0 0 RC
10.0 ML
2 LW
N
327.16 36.84 M
327.16 32.16 L
331.84 32.16 L
331.84 36.84 L
cp
S
GR
GS
1 0 0 RC
10.0 ML
2 LW
N
345.16 36.84 M
345.16 32.16 L
349.84 32.16 L
349.84 36.84 L
cp
S
GR
GS
1 0 0 RC
10.0 ML
2 LW
N
363.16 35.84 M
363.16 31.16 L
367.84 31.16 L
367.84 35.84 L
cp
S
GR
GS
1 0 0 RC
10.0 ML
2 LW
N
381.16 35.84 M
381.16 31.16 L
385.84 31.16 L
385.84 35.84 L
cp
S
GR
GS
1 0 0 RC
10.0 ML
2 LW
N
398.16 35.84 M
398.16 31.16 L
402.84 31.16 L
402.84 35.84 L
cp
S
GR
GS
1 0 0 RC
10.0 ML
2 LW
N
416.16 35.84 M
416.16 31.16 L
420.84 31.16 L
420.84 35.84 L
cp
S
GR
GS
1 0 0 RC
10.0 ML
2 LW
N
434.16 35.84 M
434.16 31.16 L
438.84 31.16 L
438.84 35.84 L
cp
S
GR
GS
1 0 0 RC
10.0 ML
2 LW
N
452.16 35.84 M
452.16 31.16 L
456.84 31.16 L
456.84 35.84 L
cp
S
GR
GS
1 0 0 RC
10.0 ML
2 LW
N
470.16 35.84 M
470.16 31.16 L
474.84 31.16 L
474.84 35.84 L
cp
S
GR
GS
1 0 0 RC
10.0 ML
2 LW
N
488.16 35.84 M
488.16 31.16 L
492.84 31.16 L
492.84 35.84 L
cp
S
GR
GS
1 0 0 RC
10.0 ML
2 LW
N
506.16 35.84 M
506.16 31.16 L
510.84 31.16 L
510.84 35.84 L
cp
S
GR
GS
0 1 0 RC
1 LJ
2 LW
N
79.465 381.889 M
97.325 374.066 L
115.185 344.918 L
133.045 289.872 L
150.905 229.318 L
168.765 169.042 L
186.625 127.989 L
204.485 96.409 L
222.345 73.91 L
240.205 58.635 L
258.065 50.664 L
275.925 43.99 L
293.785 40.459 L
311.645 38.341 L
329.505 36.716 L
347.365 35.619 L
365.225 35.352 L
383.085 35.236 L
400.945 34.951 L
418.805 34.681 L
436.665 34.552 L
454.525 34.44 L
472.385 34.407 L
490.245 34.315 L
508.105 34.203 L
S
GR
GS
0 1 0 RC
10.0 ML
2 LW
N
76.037 383.5 M
82.963 383.5 L
79.5 377.501 L
cp
S
GR
GS
0 1 0 RC
10.0 ML
2 LW
N
94.037 376.5 M
100.963 376.5 L
97.5 370.501 L
cp
S
GR
GS
0 1 0 RC
10.0 ML
2 LW
N
112.037 346.5 M
118.963 346.5 L
115.5 340.501 L
cp
S
GR
GS
0 1 0 RC
10.0 ML
2 LW
N
130.037 291.5 M
136.963 291.5 L
133.5 285.501 L
cp
S
GR
GS
0 1 0 RC
10.0 ML
2 LW
N
147.037 231.499 M
153.963 231.499 L
150.5 225.501 L
cp
S
GR
GS
0 1 0 RC
10.0 ML
2 LW
N
165.037 171.499 M
171.963 171.499 L
168.5 165.501 L
cp
S
GR
GS
0 1 0 RC
10.0 ML
2 LW
N
183.037 129.499 M
189.963 129.499 L
186.5 123.501 L
cp
S
GR
GS
0 1 0 RC
10.0 ML
2 LW
N
201.037 98.499 M
207.963 98.499 L
204.5 92.501 L
cp
S
GR
GS
0 1 0 RC
10.0 ML
2 LW
N
219.037 75.499 M
225.963 75.499 L
222.5 69.501 L
cp
S
GR
GS
0 1 0 RC
10.0 ML
2 LW
N
237.037 60.5 M
243.963 60.5 L
240.5 54.501 L
cp
S
GR
GS
0 1 0 RC
10.0 ML
2 LW
N
255.037 52.5 M
261.963 52.5 L
258.5 46.501 L
cp
S
GR
GS
0 1 0 RC
10.0 ML
2 LW
N
272.037 45.5 M
278.963 45.5 L
275.5 39.501 L
cp
S
GR
GS
0 1 0 RC
10.0 ML
2 LW
N
290.037 42.5 M
296.963 42.5 L
293.5 36.501 L
cp
S
GR
GS
0 1 0 RC
10.0 ML
2 LW
N
308.037 40.5 M
314.963 40.5 L
311.5 34.501 L
cp
S
GR
GS
0 1 0 RC
10.0 ML
2 LW
N
326.037 38.5 M
332.963 38.5 L
329.5 32.501 L
cp
S
GR
GS
0 1 0 RC
10.0 ML
2 LW
N
344.037 37.5 M
350.963 37.5 L
347.5 31.501 L
cp
S
GR
GS
0 1 0 RC
10.0 ML
2 LW
N
362.037 37.5 M
368.963 37.5 L
365.5 31.501 L
cp
S
GR
GS
0 1 0 RC
10.0 ML
2 LW
N
380.037 37.5 M
386.963 37.5 L
383.5 31.501 L
cp
S
GR
GS
0 1 0 RC
10.0 ML
2 LW
N
397.037 36.5 M
403.963 36.5 L
400.5 30.501 L
cp
S
GR
GS
0 1 0 RC
10.0 ML
2 LW
N
415.037 36.5 M
421.963 36.5 L
418.5 30.501 L
cp
S
GR
GS
0 1 0 RC
10.0 ML
2 LW
N
433.037 36.5 M
439.963 36.5 L
436.5 30.501 L
cp
S
GR
GS
0 1 0 RC
10.0 ML
2 LW
N
451.037 36.5 M
457.963 36.5 L
454.5 30.501 L
cp
S
GR
GS
0 1 0 RC
10.0 ML
2 LW
N
469.037 36.5 M
475.963 36.5 L
472.5 30.501 L
cp
S
GR
GS
0 1 0 RC
10.0 ML
2 LW
N
487.037 36.5 M
493.963 36.5 L
490.5 30.501 L
cp
S
GR
GS
0 1 0 RC
10.0 ML
2 LW
N
505.037 36.5 M
511.963 36.5 L
508.5 30.501 L
cp
S
GR
GS
0 0 1 RC
[8 8] 0 setdash
2 LJ
2 LW
N
79.465 377.453 M
97.325 328.603 L
115.185 291.266 L
133.045 263.768 L
150.905 242.482 L
168.765 224.98 L
186.625 209.727 L
204.485 197.079 L
222.345 185.96 L
240.205 176.311 L
258.065 167.716 L
275.925 160.435 L
293.785 153.493 L
311.645 146.983 L
329.505 141.495 L
347.365 136.515 L
365.225 131.447 L
383.085 127.435 L
400.945 123.702 L
418.805 119.907 L
436.665 116.297 L
454.525 113.173 L
472.385 110.239 L
490.245 107.733 L
508.105 105.331 L
S
GR
GS
0 0 1 RC
1 LJ
2 LW
N
82.5 377.5 M
81.621 375.379 L
79.5 374.5 L
77.379 375.379 L
76.5 377.5 L
77.379 379.621 L
79.5 380.5 L
81.621 379.621 L
cp
S
GR
GS
0 0 1 RC
1 LJ
2 LW
N
100.5 328.5 M
99.621 326.379 L
97.5 325.5 L
95.379 326.379 L
94.5 328.5 L
95.379 330.621 L
97.5 331.5 L
99.621 330.621 L
cp
S
GR
GS
0 0 1 RC
1 LJ
2 LW
N
118.5 291.5 M
117.621 289.379 L
115.5 288.5 L
113.379 289.379 L
112.5 291.5 L
113.379 293.621 L
115.5 294.5 L
117.621 293.621 L
cp
S
GR
GS
0 0 1 RC
1 LJ
2 LW
N
136.5 263.5 M
135.621 261.379 L
133.5 260.5 L
131.379 261.379 L
130.5 263.5 L
131.379 265.621 L
133.5 266.5 L
135.621 265.621 L
cp
S
GR
GS
0 0 1 RC
1 LJ
2 LW
N
153.5 242.5 M
152.621 240.379 L
150.5 239.5 L
148.379 240.379 L
147.5 242.5 L
148.379 244.621 L
150.5 245.5 L
152.621 244.621 L
cp
S
GR
GS
0 0 1 RC
1 LJ
2 LW
N
171.5 224.5 M
170.621 222.379 L
168.5 221.5 L
166.379 222.379 L
165.5 224.5 L
166.379 226.621 L
168.5 227.5 L
170.621 226.621 L
cp
S
GR
GS
0 0 1 RC
1 LJ
2 LW
N
189.5 209.5 M
188.621 207.379 L
186.5 206.5 L
184.379 207.379 L
183.5 209.5 L
184.379 211.621 L
186.5 212.5 L
188.621 211.621 L
cp
S
GR
GS
0 0 1 RC
1 LJ
2 LW
N
207.5 197.5 M
206.621 195.379 L
204.5 194.5 L
202.379 195.379 L
201.5 197.5 L
202.379 199.621 L
204.5 200.5 L
206.621 199.621 L
cp
S
GR
GS
0 0 1 RC
1 LJ
2 LW
N
225.5 185.5 M
224.621 183.379 L
222.5 182.5 L
220.379 183.379 L
219.5 185.5 L
220.379 187.621 L
222.5 188.5 L
224.621 187.621 L
cp
S
GR
GS
0 0 1 RC
1 LJ
2 LW
N
243.5 176.5 M
242.621 174.379 L
240.5 173.5 L
238.379 174.379 L
237.5 176.5 L
238.379 178.621 L
240.5 179.5 L
242.621 178.621 L
cp
S
GR
GS
0 0 1 RC
1 LJ
2 LW
N
261.5 167.5 M
260.621 165.379 L
258.5 164.5 L
256.379 165.379 L
255.5 167.5 L
256.379 169.621 L
258.5 170.5 L
260.621 169.621 L
cp
S
GR
GS
0 0 1 RC
1 LJ
2 LW
N
278.5 160.5 M
277.621 158.379 L
275.5 157.5 L
273.379 158.379 L
272.5 160.5 L
273.379 162.621 L
275.5 163.5 L
277.621 162.621 L
cp
S
GR
GS
0 0 1 RC
1 LJ
2 LW
N
296.5 153.5 M
295.621 151.379 L
293.5 150.5 L
291.379 151.379 L
290.5 153.5 L
291.379 155.621 L
293.5 156.5 L
295.621 155.621 L
cp
S
GR
GS
0 0 1 RC
1 LJ
2 LW
N
314.5 146.5 M
313.621 144.379 L
311.5 143.5 L
309.379 144.379 L
308.5 146.5 L
309.379 148.621 L
311.5 149.5 L
313.621 148.621 L
cp
S
GR
GS
0 0 1 RC
1 LJ
2 LW
N
332.5 141.5 M
331.621 139.379 L
329.5 138.5 L
327.379 139.379 L
326.5 141.5 L
327.379 143.621 L
329.5 144.5 L
331.621 143.621 L
cp
S
GR
GS
0 0 1 RC
1 LJ
2 LW
N
350.5 136.5 M
349.621 134.379 L
347.5 133.5 L
345.379 134.379 L
344.5 136.5 L
345.379 138.621 L
347.5 139.5 L
349.621 138.621 L
cp
S
GR
GS
0 0 1 RC
1 LJ
2 LW
N
368.5 131.5 M
367.621 129.379 L
365.5 128.5 L
363.379 129.379 L
362.5 131.5 L
363.379 133.621 L
365.5 134.5 L
367.621 133.621 L
cp
S
GR
GS
0 0 1 RC
1 LJ
2 LW
N
386.5 127.5 M
385.621 125.379 L
383.5 124.5 L
381.379 125.379 L
380.5 127.5 L
381.379 129.621 L
383.5 130.5 L
385.621 129.621 L
cp
S
GR
GS
0 0 1 RC
1 LJ
2 LW
N
403.5 123.5 M
402.621 121.379 L
400.5 120.5 L
398.379 121.379 L
397.5 123.5 L
398.379 125.621 L
400.5 126.5 L
402.621 125.621 L
cp
S
GR
GS
0 0 1 RC
1 LJ
2 LW
N
421.5 119.5 M
420.621 117.379 L
418.5 116.5 L
416.379 117.379 L
415.5 119.5 L
416.379 121.621 L
418.5 122.5 L
420.621 121.621 L
cp
S
GR
GS
0 0 1 RC
1 LJ
2 LW
N
439.5 116.5 M
438.621 114.379 L
436.5 113.5 L
434.379 114.379 L
433.5 116.5 L
434.379 118.621 L
436.5 119.5 L
438.621 118.621 L
cp
S
GR
GS
0 0 1 RC
1 LJ
2 LW
N
457.5 113.5 M
456.621 111.379 L
454.5 110.5 L
452.379 111.379 L
451.5 113.5 L
452.379 115.621 L
454.5 116.5 L
456.621 115.621 L
cp
S
GR
GS
0 0 1 RC
1 LJ
2 LW
N
475.5 110.5 M
474.621 108.379 L
472.5 107.5 L
470.379 108.379 L
469.5 110.5 L
470.379 112.621 L
472.5 113.5 L
474.621 112.621 L
cp
S
GR
GS
0 0 1 RC
1 LJ
2 LW
N
493.5 107.5 M
492.621 105.379 L
490.5 104.5 L
488.379 105.379 L
487.5 107.5 L
488.379 109.621 L
490.5 110.5 L
492.621 109.621 L
cp
S
GR
GS
0 0 1 RC
1 LJ
2 LW
N
511.5 105.5 M
510.621 103.379 L
508.5 102.5 L
506.379 103.379 L
505.5 105.5 L
506.379 107.621 L
508.5 108.5 L
510.621 107.621 L
cp
S
GR
GS
1 0 0 RC
[8 8] 0 setdash
2 LJ
2 LW
N
79.465 380.263 M
97.325 364.257 L
115.185 341.746 L
133.045 320.12 L
150.905 301.689 L
168.765 286.057 L
186.625 272.597 L
204.485 260.167 L
222.345 248.899 L
240.205 239.194 L
258.065 229.681 L
275.925 221.295 L
293.785 213.355 L
311.645 206.34 L
329.505 199.412 L
347.365 193.152 L
365.225 187.403 L
383.085 182.174 L
400.945 177.021 L
418.805 172.392 L
436.665 167.732 L
454.525 163.342 L
472.385 159.763 L
490.245 156.303 L
508.105 152.745 L
S
GR
GS
1 0 0 RC
10.0 ML
2 LW
N
77.16 382.84 M
77.16 378.16 L
81.84 378.16 L
81.84 382.84 L
cp
S
GR
GS
1 0 0 RC
10.0 ML
2 LW
N
95.16 366.84 M
95.16 362.16 L
99.84 362.16 L
99.84 366.84 L
cp
S
GR
GS
1 0 0 RC
10.0 ML
2 LW
N
113.16 343.84 M
113.16 339.16 L
117.84 339.16 L
117.84 343.84 L
cp
S
GR
GS
1 0 0 RC
10.0 ML
2 LW
N
131.16 322.84 M
131.16 318.16 L
135.84 318.16 L
135.84 322.84 L
cp
S
GR
GS
1 0 0 RC
10.0 ML
2 LW
N
148.16 303.84 M
148.16 299.16 L
152.84 299.16 L
152.84 303.84 L
cp
S
GR
GS
1 0 0 RC
10.0 ML
2 LW
N
166.16 288.84 M
166.16 284.16 L
170.84 284.16 L
170.84 288.84 L
cp
S
GR
GS
1 0 0 RC
10.0 ML
2 LW
N
184.16 274.84 M
184.16 270.16 L
188.84 270.16 L
188.84 274.84 L
cp
S
GR
GS
1 0 0 RC
10.0 ML
2 LW
N
202.16 262.84 M
202.16 258.16 L
206.84 258.16 L
206.84 262.84 L
cp
S
GR
GS
1 0 0 RC
10.0 ML
2 LW
N
220.16 250.84 M
220.16 246.16 L
224.84 246.16 L
224.84 250.84 L
cp
S
GR
GS
1 0 0 RC
10.0 ML
2 LW
N
238.16 241.84 M
238.16 237.16 L
242.84 237.16 L
242.84 241.84 L
cp
S
GR
GS
1 0 0 RC
10.0 ML
2 LW
N
256.16 231.84 M
256.16 227.16 L
260.84 227.16 L
260.84 231.84 L
cp
S
GR
GS
1 0 0 RC
10.0 ML
2 LW
N
273.16 223.84 M
273.16 219.16 L
277.84 219.16 L
277.84 223.84 L
cp
S
GR
GS
1 0 0 RC
10.0 ML
2 LW
N
291.16 215.84 M
291.16 211.16 L
295.84 211.16 L
295.84 215.84 L
cp
S
GR
GS
1 0 0 RC
10.0 ML
2 LW
N
309.16 208.84 M
309.16 204.16 L
313.84 204.16 L
313.84 208.84 L
cp
S
GR
GS
1 0 0 RC
10.0 ML
2 LW
N
327.16 201.84 M
327.16 197.16 L
331.84 197.16 L
331.84 201.84 L
cp
S
GR
GS
1 0 0 RC
10.0 ML
2 LW
N
345.16 195.84 M
345.16 191.16 L
349.84 191.16 L
349.84 195.84 L
cp
S
GR
GS
1 0 0 RC
10.0 ML
2 LW
N
363.16 189.84 M
363.16 185.16 L
367.84 185.16 L
367.84 189.84 L
cp
S
GR
GS
1 0 0 RC
10.0 ML
2 LW
N
381.16 184.84 M
381.16 180.16 L
385.84 180.16 L
385.84 184.84 L
cp
S
GR
GS
1 0 0 RC
10.0 ML
2 LW
N
398.16 179.84 M
398.16 175.16 L
402.84 175.16 L
402.84 179.84 L
cp
S
GR
GS
1 0 0 RC
10.0 ML
2 LW
N
416.16 174.84 M
416.16 170.16 L
420.84 170.16 L
420.84 174.84 L
cp
S
GR
GS
1 0 0 RC
10.0 ML
2 LW
N
434.16 169.84 M
434.16 165.16 L
438.84 165.16 L
438.84 169.84 L
cp
S
GR
GS
1 0 0 RC
10.0 ML
2 LW
N
452.16 165.84 M
452.16 161.16 L
456.84 161.16 L
456.84 165.84 L
cp
S
GR
GS
1 0 0 RC
10.0 ML
2 LW
N
470.16 161.84 M
470.16 157.16 L
474.84 157.16 L
474.84 161.84 L
cp
S
GR
GS
1 0 0 RC
10.0 ML
2 LW
N
488.16 158.84 M
488.16 154.16 L
492.84 154.16 L
492.84 158.84 L
cp
S
GR
GS
1 0 0 RC
10.0 ML
2 LW
N
506.16 154.84 M
506.16 150.16 L
510.84 150.16 L
510.84 154.84 L
cp
S
GR
GS
0 1 0 RC
[8 8] 0 setdash
2 LJ
2 LW
N
79.465 380.588 M
97.325 371.724 L
115.185 357.773 L
133.045 342.084 L
150.905 326.762 L
168.765 312.356 L
186.625 300.156 L
204.485 288.825 L
222.345 277.787 L
240.205 268.052 L
258.065 259.082 L
275.925 251.066 L
293.785 243.198 L
311.645 236.277 L
329.505 229.639 L
347.365 223.458 L
365.225 217.445 L
383.085 211.162 L
400.945 206.189 L
418.805 201.373 L
436.665 196.427 L
454.525 192.06 L
472.385 187.968 L
490.245 183.988 L
508.105 179.911 L
S
GR
GS
0 1 0 RC
10.0 ML
2 LW
N
76.037 382.5 M
82.963 382.5 L
79.5 376.501 L
cp
S
GR
GS
0 1 0 RC
10.0 ML
2 LW
N
94.037 373.5 M
100.963 373.5 L
97.5 367.501 L
cp
S
GR
GS
0 1 0 RC
10.0 ML
2 LW
N
112.037 359.5 M
118.963 359.5 L
115.5 353.501 L
cp
S
GR
GS
0 1 0 RC
10.0 ML
2 LW
N
130.037 344.5 M
136.963 344.5 L
133.5 338.501 L
cp
S
GR
GS
0 1 0 RC
10.0 ML
2 LW
N
147.037 328.5 M
153.963 328.5 L
150.5 322.501 L
cp
S
GR
GS
0 1 0 RC
10.0 ML
2 LW
N
165.037 314.5 M
171.963 314.5 L
168.5 308.501 L
cp
S
GR
GS
0 1 0 RC
10.0 ML
2 LW
N
183.037 302.5 M
189.963 302.5 L
186.5 296.501 L
cp
S
GR
GS
0 1 0 RC
10.0 ML
2 LW
N
201.037 290.5 M
207.963 290.5 L
204.5 284.501 L
cp
S
GR
GS
0 1 0 RC
10.0 ML
2 LW
N
219.037 279.5 M
225.963 279.5 L
222.5 273.501 L
cp
S
GR
GS
0 1 0 RC
10.0 ML
2 LW
N
237.037 270.5 M
243.963 270.5 L
240.5 264.501 L
cp
S
GR
GS
0 1 0 RC
10.0 ML
2 LW
N
255.037 261.5 M
261.963 261.5 L
258.5 255.501 L
cp
S
GR
GS
0 1 0 RC
10.0 ML
2 LW
N
272.037 253.499 M
278.963 253.499 L
275.5 247.501 L
cp
S
GR
GS
0 1 0 RC
10.0 ML
2 LW
N
290.037 245.499 M
296.963 245.499 L
293.5 239.501 L
cp
S
GR
GS
0 1 0 RC
10.0 ML
2 LW
N
308.037 238.499 M
314.963 238.499 L
311.5 232.501 L
cp
S
GR
GS
0 1 0 RC
10.0 ML
2 LW
N
326.037 231.499 M
332.963 231.499 L
329.5 225.501 L
cp
S
GR
GS
0 1 0 RC
10.0 ML
2 LW
N
344.037 225.499 M
350.963 225.499 L
347.5 219.501 L
cp
S
GR
GS
0 1 0 RC
10.0 ML
2 LW
N
362.037 219.499 M
368.963 219.499 L
365.5 213.501 L
cp
S
GR
GS
0 1 0 RC
10.0 ML
2 LW
N
380.037 213.499 M
386.963 213.499 L
383.5 207.501 L
cp
S
GR
GS
0 1 0 RC
10.0 ML
2 LW
N
397.037 208.499 M
403.963 208.499 L
400.5 202.501 L
cp
S
GR
GS
0 1 0 RC
10.0 ML
2 LW
N
415.037 203.499 M
421.963 203.499 L
418.5 197.501 L
cp
S
GR
GS
0 1 0 RC
10.0 ML
2 LW
N
433.037 198.499 M
439.963 198.499 L
436.5 192.501 L
cp
S
GR
GS
0 1 0 RC
10.0 ML
2 LW
N
451.037 194.499 M
457.963 194.499 L
454.5 188.501 L
cp
S
GR
GS
0 1 0 RC
10.0 ML
2 LW
N
469.037 189.499 M
475.963 189.499 L
472.5 183.501 L
cp
S
GR
GS
0 1 0 RC
10.0 ML
2 LW
N
487.037 185.499 M
493.963 185.499 L
490.5 179.501 L
cp
S
GR
GS
0 1 0 RC
10.0 ML
2 LW
N
505.037 181.499 M
511.963 181.499 L
508.5 175.501 L
cp
S
GR
GS
1 GC
N
310.5 372 M
310.5 254.5 L
511.5 254.5 L
511.5 372 L
cp
f
GR
GS
[1 0 0 1 349.5 265.75] CT
/Helvetica 18 F
GS
[1 0 0 1 0 0] CT
0 4.5 moveto 
1 -1 scale
(OneShot, s=5) t 
GR
GR
GS
0 0 1 RC
1 LJ
2 LW
N
316.5 265.75 M
346.5 265.75 L
S
GR
GS
0 0 1 RC
1 LJ
2 LW
N
334.5 265.5 M
333.621 263.379 L
331.5 262.5 L
329.379 263.379 L
328.5 265.5 L
329.379 267.621 L
331.5 268.5 L
333.621 267.621 L
cp
S
GR
GS
[1 0 0 1 349.5 284.75] CT
/Helvetica 18 F
GS
[1 0 0 1 0 0] CT
0 4.5 moveto 
1 -1 scale
(OneShot, s=15) t 
GR
GR
GS
1 0 0 RC
1 LJ
2 LW
N
316.5 284.75 M
346.5 284.75 L
S
GR
GS
1 0 0 RC
10.0 ML
2 LW
N
329.16 286.84 M
329.16 282.16 L
333.84 282.16 L
333.84 286.84 L
cp
S
GR
GS
[1 0 0 1 349.5 303.75] CT
/Helvetica 18 F
GS
[1 0 0 1 0 0] CT
0 4.5 moveto 
1 -1 scale
(OneShot, s=25) t 
GR
GR
GS
0 1 0 RC
1 LJ
2 LW
N
316.5 303.75 M
346.5 303.75 L
S
GR
GS
0 1 0 RC
10.0 ML
2 LW
N
328.037 305.5 M
334.963 305.5 L
331.5 299.501 L
cp
S
GR
GS
[1 0 0 1 349.5 322.75] CT
/Helvetica 18 F
GS
[1 0 0 1 0 0] CT
0 4.5 moveto 
1 -1 scale
(NLCDLASSO, s=5) t 
GR
GR
GS
0 0 1 RC
[8 8] 0 setdash
2 LJ
2 LW
N
316.5 322.75 M
346.5 322.75 L
S
GR
GS
0 0 1 RC
1 LJ
2 LW
N
334.5 322.5 M
333.621 320.379 L
331.5 319.5 L
329.379 320.379 L
328.5 322.5 L
329.379 324.621 L
331.5 325.5 L
333.621 324.621 L
cp
S
GR
GS
[1 0 0 1 349.5 341.75] CT
/Helvetica 18 F
GS
[1 0 0 1 0 0] CT
0 4.5 moveto 
1 -1 scale
(NLCDLASSO, s=15) t 
GR
GR
GS
1 0 0 RC
[8 8] 0 setdash
2 LJ
2 LW
N
316.5 341.75 M
346.5 341.75 L
S
GR
GS
1 0 0 RC
10.0 ML
2 LW
N
329.16 343.84 M
329.16 339.16 L
333.84 339.16 L
333.84 343.84 L
cp
S
GR
GS
[1 0 0 1 349.5 360.75] CT
/Helvetica 18 F
GS
[1 0 0 1 0 0] CT
0 4.5 moveto 
1 -1 scale
(NLCDLASSO, s=25) t 
GR
GR
GS
0 1 0 RC
[8 8] 0 setdash
2 LJ
2 LW
N
316.5 360.75 M
346.5 360.75 L
S
GR
GS
0 1 0 RC
10.0 ML
2 LW
N
328.037 362.5 M
334.963 362.5 L
331.5 356.501 L
cp
S
GR
GS
0.149 GC
10.0 ML
0.5 LW
N
310.5 372 M
310.5 254.5 L
511.5 254.5 L
511.5 372 L
cp
S
GR
%%Trailer
%%Pages: 1
%%EOF
